<?xml version="1.0" encoding="utf-8" standalone="no"?>
<!DOCTYPE svg PUBLIC "-//W3C//DTD SVG 1.1//EN"
  "http://www.w3.org/Graphics/SVG/1.1/DTD/svg11.dtd">
<!-- Created with matplotlib (http://matplotlib.org/) -->
<svg height="158pt" version="1.1" viewBox="0 0 446 158" width="446pt" xmlns="http://www.w3.org/2000/svg" xmlns:xlink="http://www.w3.org/1999/xlink">
 <defs>
  <style type="text/css">
*{stroke-linecap:butt;stroke-linejoin:round;}
  </style>
 </defs>
 <g id="figure_1">
  <g id="patch_1">
   <path d="M 0 158.4 
L 446.4 158.4 
L 446.4 0 
L 0 0 
z
" style="fill:#ffffff;"/>
  </g>
  <g id="axes_1">
   <g id="patch_2">
    <path d="M 46.43132 98.10843 
L 408.579116 98.10843 
L 408.579116 16.419249 
L 46.43132 16.419249 
z
" style="fill:#ffffff;"/>
   </g>
   <g id="line2d_1">
    <path clip-path="url(#p3cd6524938)" d="M 46.43132 23.845538 
L 408.579116 23.845538 
" style="fill:none;stroke:#6074a2;stroke-dasharray:5.18,2.24;stroke-dashoffset:0;stroke-width:1.4;"/>
   </g>
   <g id="matplotlib.axis_1">
    <g id="xtick_1">
     <g id="line2d_2"/>
     <g id="text_1">
      <!-- 2. cyclic -->
      <defs>
       <path d="M 41.703125 15.453125 
L 39.90625 15.453125 
C 38.90625 8.375 38.09375 7.171875 37.703125 6.5625 
C 37.203125 5.765625 30 5.765625 28.59375 5.765625 
L 9.40625 5.765625 
C 13 9.671875 20 16.75 28.5 24.953125 
C 34.59375 30.734375 41.703125 37.53125 41.703125 47.421875 
C 41.703125 59.21875 32.296875 66 21.796875 66 
C 10.796875 66 4.09375 56.3125 4.09375 47.34375 
C 4.09375 43.4375 7 42.9375 8.203125 42.9375 
C 9.203125 42.9375 12.203125 43.546875 12.203125 47.03125 
C 12.203125 50.109375 9.59375 51 8.203125 51 
C 7.59375 51 7 50.90625 6.59375 50.703125 
C 8.5 59.21875 14.296875 63.40625 20.40625 63.40625 
C 29.09375 63.40625 34.796875 56.515625 34.796875 47.421875 
C 34.796875 38.734375 29.703125 31.25 24 24.75 
L 4.09375 2.28125 
L 4.09375 0 
L 39.296875 0 
z
" id="CMR17-50"/>
       <path d="M 16.59375 4.078125 
C 16.59375 6.5625 14.59375 8.15625 12.5 8.15625 
C 10.5 8.15625 8.40625 6.5625 8.40625 4.078125 
C 8.40625 1.59375 10.40625 0 12.5 0 
C 14.5 0 16.59375 1.59375 16.59375 4.078125 
z
" id="CMR17-46"/>
       <path d="M 34.90625 35 
C 33 35 30.203125 35 30.203125 31.515625 
C 30.203125 28.71875 32.5 27.921875 33.796875 27.921875 
C 34.5 27.921875 37.40625 28.234375 37.40625 31.625 
C 37.40625 38.546875 30.59375 43.796875 22.90625 43.796875 
C 12.296875 43.796875 3.296875 34.03125 3.296875 21.296875 
C 3.296875 8.0625 12.703125 -1 22.90625 -1 
C 35.296875 -1 38.40625 10.578125 38.40625 11.6875 
C 38.40625 12.09375 38.296875 12.390625 37.59375 12.390625 
C 36.90625 12.390625 36.796875 12.296875 36.40625 10.984375 
C 33.796875 2.8125 28.09375 0.796875 23.796875 0.796875 
C 17.40625 0.796875 9.703125 6.671875 9.703125 21.390625 
C 9.703125 36.53125 17.09375 42 23 42 
C 26.90625 42 32.703125 40.203125 34.90625 35 
z
" id="CMR17-99"/>
       <path d="M 39 34.328125 
C 41.5 40.40625 46 40.40625 47.40625 40.40625 
L 47.40625 43 
C 45.5 43 43 43 41.09375 43 
C 39 43 35.703125 43 33.703125 43.09375 
L 33.703125 40.5 
C 37.5 40.203125 37.59375 37.40625 37.59375 36.609375 
C 37.59375 35.625 37.40625 35.125 36.90625 33.921875 
L 26 7.015625 
L 14.09375 36.03125 
C 13.59375 37.21875 13.59375 37.90625 13.59375 38.015625 
C 13.59375 40.203125 15.90625 40.40625 18.296875 40.40625 
L 18.296875 43.09375 
C 15.90625 43 11.59375 43 9.09375 43 
C 6.40625 43 3.203125 43 1 43.09375 
L 1 40.40625 
C 6.40625 40.40625 7 39.90625 8.296875 36.71875 
L 23.203125 0.234375 
C 18.703125 -11.53125 16.09375 -18.40625 9.796875 -18.40625 
C 8.703125 -18.40625 6.203125 -18.109375 4.40625 -16.3125 
C 6.703125 -16.109375 7.703125 -14.71875 7.703125 -13.015625 
C 7.703125 -11.328125 6.5 -9.828125 4.5 -9.828125 
C 2.296875 -9.828125 1.203125 -11.328125 1.203125 -13.125 
C 1.203125 -17.109375 5.296875 -20 9.796875 -20 
C 15.59375 -20 19.203125 -14.40625 21.203125 -9.4375 
z
" id="CMR17-121"/>
       <path d="M 15.296875 68.6875 
L 3.40625 67.59375 
L 3.40625 65 
C 9.296875 65 10.203125 64.40625 10.203125 59.640625 
L 10.203125 6.65625 
C 10.203125 2.875 9.796875 2.390625 3.40625 2.390625 
L 3.40625 -0.203125 
C 5.796875 0 10.203125 0 12.703125 0 
C 15.296875 0 19.703125 0 22.09375 -0.203125 
L 22.09375 2.390625 
C 15.703125 2.390625 15.296875 2.78125 15.296875 6.65625 
z
" id="CMR17-108"/>
       <path d="M 15.5 61.078125 
C 15.5 63.265625 13.703125 65.15625 11.40625 65.15625 
C 9.203125 65.15625 7.296875 63.375 7.296875 61.078125 
C 7.296875 58.890625 9.09375 57 11.40625 57 
C 13.59375 57 15.5 58.796875 15.5 61.078125 
z
M 3.796875 42.28125 
L 3.796875 39.703125 
C 9.40625 39.703125 10.203125 39.09375 10.203125 34.328125 
L 10.203125 6.671875 
C 10.203125 2.875 9.796875 2.390625 3.40625 2.390625 
L 3.40625 -0.203125 
C 5.796875 0 10.09375 0 12.59375 0 
C 15 0 19.09375 0 21.40625 -0.203125 
L 21.40625 2.390625 
C 15.5 2.390625 15.296875 2.984375 15.296875 6.5625 
L 15.296875 43.375 
z
" id="CMR17-105"/>
      </defs>
      <g style="fill:#262626;" transform="translate(69.728112 111.609692)rotate(-340)scale(0.1 -0.1)">
       <use transform="scale(0.996264)" xlink:href="#CMR17-50"/>
       <use transform="translate(45.690477 0)scale(0.996264)" xlink:href="#CMR17-46"/>
       <use transform="translate(111.047196 0)scale(0.996264)" xlink:href="#CMR17-99"/>
       <use transform="translate(151.532857 0)scale(0.996264)" xlink:href="#CMR17-121"/>
       <use transform="translate(199.825772 0)scale(0.996264)" xlink:href="#CMR17-99"/>
       <use transform="translate(240.311433 0)scale(0.996264)" xlink:href="#CMR17-108"/>
       <use transform="translate(265.182491 0)scale(0.996264)" xlink:href="#CMR17-105"/>
       <use transform="translate(290.05355 0)scale(0.996264)" xlink:href="#CMR17-99"/>
      </g>
     </g>
    </g>
    <g id="xtick_2">
     <g id="line2d_3"/>
     <g id="text_2">
      <!-- 4.2 zipf (s$\in$[2.5, 5]) -->
      <defs>
       <path d="M 33.59375 64.40625 
C 33.59375 66.5 33.5 66.5 31.703125 66.5 
L 2 19.59375 
L 2 17 
L 27.796875 17 
L 27.796875 7.140625 
C 27.796875 3.5 27.59375 2.5 20.59375 2.5 
L 18.703125 2.5 
L 18.703125 0 
C 21.90625 0 27.296875 0 30.703125 0 
C 34.09375 0 39.5 0 42.703125 0 
L 42.703125 2.5 
L 40.796875 2.5 
C 33.796875 2.5 33.59375 3.5 33.59375 7.140625 
L 33.59375 17 
L 43.796875 17 
L 43.796875 19.59375 
L 33.59375 19.59375 
z
M 28.09375 57.859375 
L 28.09375 19.59375 
L 4 19.59375 
z
" id="CMR17-52"/>
       <path d="M 36.09375 40.703125 
C 36.90625 41.71875 36.90625 41.90625 36.90625 42.109375 
C 36.90625 43 36.5 43 34.703125 43 
L 4.296875 43 
L 3.296875 27.5 
L 5.09375 27.5 
C 5.796875 37.203125 6.90625 41.40625 18.40625 41.40625 
L 30.59375 41.40625 
L 2 1.5 
C 2 0 2.09375 0 4.203125 0 
L 35.796875 0 
L 37.203125 18 
L 35.40625 18 
C 34.59375 6.90625 33.296875 1.796875 21.09375 1.796875 
L 8.296875 1.796875 
z
" id="CMR17-122"/>
       <path d="M 22 -16.609375 
C 15.59375 -16.609375 15.203125 -16.203125 15.203125 -12.328125 
L 15.203125 6.28125 
C 18.09375 2.09375 22.296875 -0.59375 27.59375 -0.59375 
C 37.59375 -0.59375 47.703125 8.171875 47.703125 21.6875 
C 47.703125 34.234375 39 43.78125 28.703125 43.78125 
C 22.703125 43.78125 17.796875 40.5 15 36.53125 
L 15 43.78125 
L 3.09375 42.6875 
L 3.09375 40.109375 
C 9 40.109375 9.90625 39.5 9.90625 34.734375 
L 9.90625 -12.328125 
C 9.90625 -16.109375 9.5 -16.609375 3.09375 -16.609375 
L 3.09375 -19.1875 
C 5.5 -19 9.90625 -19 12.5 -19 
C 15.09375 -19 19.59375 -19 22 -19.1875 
z
M 15.203125 31.4375 
C 15.203125 32.84375 15.203125 34.921875 19.09375 38.609375 
C 19.59375 39.015625 23 42 28 42 
C 35.296875 42 41.296875 32.9375 41.296875 21.59375 
C 41.296875 10.25 34.90625 1 27 1 
C 23.40625 1 19.5 2.6875 16.5 7.375 
C 15.203125 9.5625 15.203125 10.15625 15.203125 11.75 
z
" id="CMR17-112"/>
       <path d="M 15.296875 40 
L 26.703125 40 
L 26.703125 42.578125 
L 15.09375 42.578125 
L 15.09375 54.59375 
C 15.09375 62.84375 19.296875 68 23.59375 68 
C 24.90625 68 26.40625 67.609375 27.40625 66.90625 
C 26.59375 66.703125 24.5 66.015625 24.5 63.546875 
C 24.5 60.953125 26.5 60.15625 27.90625 60.15625 
C 29.296875 60.15625 31.296875 60.953125 31.296875 63.546875 
C 31.296875 67.3125 27.703125 69.59375 23.703125 69.59375 
C 18 69.59375 10.203125 64.9375 10.203125 54.390625 
L 10.203125 42.578125 
L 2.203125 42.578125 
L 2.203125 40 
L 10.203125 40 
L 10.203125 6.671875 
C 10.203125 2.875 9.796875 2.390625 3.40625 2.390625 
L 3.40625 -0.203125 
C 5.796875 0 10.40625 0 13 0 
C 15.90625 0 21 0 23.703125 -0.203125 
L 23.703125 2.390625 
C 16.5 2.390625 15.296875 2.390625 15.296875 6.859375 
z
" id="CMR17-102"/>
       <path d="M 30.59375 -24.390625 
C 30.59375 -24.296875 30.59375 -24.09375 30.296875 -23.796875 
C 25.703125 -19.125 13.40625 -6.359375 13.40625 24.703125 
C 13.40625 55.765625 25.5 68.421875 30.40625 73.390625 
C 30.40625 73.5 30.59375 73.703125 30.59375 74 
C 30.59375 74.296875 30.296875 74.5 29.90625 74.5 
C 28.796875 74.5 20.296875 67.125 15.40625 56.15625 
C 10.40625 45.109375 9 34.359375 9 24.8125 
C 9 17.625 9.703125 5.484375 15.703125 -7.359375 
C 20.5 -17.734375 28.703125 -25 29.90625 -25 
C 30.40625 -25 30.59375 -24.796875 30.59375 -24.390625 
z
" id="CMR17-40"/>
       <path d="M 30.90625 42.140625 
C 30.90625 43.953125 30.796875 44.046875 30.203125 44.046875 
C 29.796875 44.046875 29.703125 43.953125 28.5 42.453125 
C 28.203125 42.046875 27.296875 41.03125 27 40.640625 
C 23.796875 44.046875 19.296875 44.046875 17.59375 44.046875 
C 6.5 44.046875 2.5 38.234375 2.5 32.4375 
C 2.5 23.40625 12.703125 21.328125 15.59375 20.703125 
C 21.90625 19.421875 24.09375 19.015625 26.203125 17.203125 
C 27.5 16.015625 29.703125 13.8125 29.703125 10.21875 
C 29.703125 6 27.296875 0.59375 18.09375 0.59375 
C 9.40625 0.59375 6.296875 7.1875 4.5 15.953125 
C 4.203125 17.34375 4.203125 17.453125 3.40625 17.453125 
C 2.59375 17.453125 2.5 17.34375 2.5 15.359375 
L 2.5 0.984375 
C 2.5 -0.796875 2.59375 -0.90625 3.203125 -0.90625 
C 3.703125 -0.90625 3.796875 -0.796875 4.296875 0 
C 4.90625 0.890625 6.40625 3.296875 7 4.3125 
C 9 1.609375 12.5 -1 18.09375 -1 
C 28 -1 33.296875 4.421875 33.296875 12.25 
C 33.296875 17.375 30.59375 20.078125 29.296875 21.28125 
C 26.296875 24.390625 22.796875 25.09375 18.59375 25.890625 
C 13.09375 27.109375 6.09375 28.515625 6.09375 34.640625 
C 6.09375 37.234375 7.5 42.765625 17.59375 42.765625 
C 28.296875 42.765625 28.90625 32.71875 29.09375 29.5 
C 29.203125 29 29.703125 28.890625 30 28.890625 
C 30.90625 28.890625 30.90625 29.203125 30.90625 30.90625 
z
" id="CMR17-115"/>
       <path d="M 54.78125 23 
C 56.484375 23 58.28125 23 58.28125 25 
C 58.28125 27 56.484375 27 54.78125 27 
L 12.375 27 
C 13.578125 40.40625 25.078125 50 39.171875 50 
L 54.78125 50 
C 56.484375 50 58.28125 50 58.28125 52 
C 58.28125 54 56.484375 54 54.78125 54 
L 38.984375 54 
C 21.875 54 8.28125 41 8.28125 25 
C 8.28125 9 21.875 -4 38.984375 -4 
L 54.78125 -4 
C 56.484375 -4 58.28125 -4 58.28125 -2 
C 58.28125 0 56.484375 0 54.78125 0 
L 39.171875 0 
C 25.078125 0 13.578125 9.59375 12.375 23 
z
" id="CMSY10-50"/>
       <path d="M 23.5 -25 
L 23.5 -21.515625 
L 14.09375 -21.515625 
L 14.09375 71 
L 23.5 71 
L 23.5 74.484375 
L 10.59375 74.484375 
L 10.59375 -25 
z
" id="CMR17-91"/>
       <path d="M 11.40625 57.6875 
C 12.40625 57.28125 16.5 56 20.703125 56 
C 30 56 35.09375 61.109375 38 64.0625 
C 38 64.953125 38 65.5 37.40625 65.5 
C 37.296875 65.5 37.09375 65.5 36.296875 65.046875 
C 32.796875 63.40625 28.703125 62.078125 23.703125 62.078125 
C 20.703125 62.078125 16.203125 62.484375 11.296875 64.671875 
C 10.203125 65.171875 10 65.171875 9.90625 65.171875 
C 9.40625 65.171875 9.296875 65.0625 9.296875 63.078125 
L 9.296875 34.421875 
C 9.296875 32.640625 9.296875 32.140625 10.296875 32.140625 
C 10.796875 32.140625 11 32.34375 11.5 33.03125 
C 14.703125 37.515625 19.09375 39.40625 24.09375 39.40625 
C 27.59375 39.40625 35.09375 37.21875 35.09375 20.140625 
C 35.09375 16.953125 35.09375 11.171875 32.09375 6.578125 
C 29.59375 2.484375 25.703125 0.390625 21.40625 0.390625 
C 14.796875 0.390625 8.09375 5 6.296875 12.71875 
C 6.703125 12.609375 7.5 12.421875 7.90625 12.421875 
C 9.203125 12.421875 11.703125 13.125 11.703125 16.21875 
C 11.703125 18.90625 9.796875 20 7.90625 20 
C 5.59375 20 4.09375 18.59375 4.09375 15.796875 
C 4.09375 7.09375 11 -2 21.59375 -2 
C 31.90625 -2 41.703125 6.875 41.703125 19.75 
C 41.703125 31.71875 33.90625 41 24.203125 41 
C 19.09375 41 14.796875 39.109375 11.40625 35.53125 
z
" id="CMR17-53"/>
       <path d="M 15.796875 1.59375 
C 16 0.703125 16 0.390625 16 -1.203125 
C 16 -7.234375 14 -12.765625 9.796875 -17.796875 
C 9.296875 -18.28125 9.296875 -18.484375 9.296875 -18.703125 
C 9.296875 -19.09375 9.703125 -19.5 10.09375 -19.5 
C 10.703125 -19.5 17.59375 -12.484375 17.59375 -1.359375 
C 17.59375 1.9375 17.203125 8.15625 12.5 8.15625 
C 10.296875 8.15625 8.40625 6.671875 8.40625 4.078125 
C 8.40625 1.5 10.296875 0 12.5 0 
C 13.703125 0 15 0.5 15.796875 1.59375 
z
" id="CMR17-44"/>
       <path d="M 14.296875 74.484375 
L 1.40625 74.484375 
L 1.40625 71 
L 10.796875 71 
L 10.796875 -21.515625 
L 1.40625 -21.515625 
L 1.40625 -25 
L 14.296875 -25 
z
" id="CMR17-93"/>
       <path d="M 26.296875 24.703125 
C 26.296875 31.875 25.59375 44.015625 19.59375 56.859375 
C 14.796875 67.234375 6.59375 74.5 5.40625 74.5 
C 5.09375 74.5 4.703125 74.390625 4.703125 73.890625 
C 4.703125 73.703125 4.796875 73.59375 4.90625 73.390625 
C 9.703125 68.40625 21.90625 55.75 21.90625 24.75 
C 21.90625 -6.359375 9.796875 -19.015625 4.90625 -24.015625 
C 4.796875 -24.203125 4.703125 -24.3125 4.703125 -24.5 
C 4.703125 -25 5.09375 -25 5.40625 -25 
C 6.5 -25 15 -17.625 19.90625 -6.65625 
C 24.90625 4.390625 26.296875 15.140625 26.296875 24.703125 
z
" id="CMR17-41"/>
      </defs>
      <g style="fill:#262626;" transform="translate(115.185888 112.129795)rotate(-340)scale(0.1 -0.1)">
       <use transform="scale(0.996264)" xlink:href="#CMR17-52"/>
       <use transform="translate(45.690477 0)scale(0.996264)" xlink:href="#CMR17-46"/>
       <use transform="translate(70.561536 0)scale(0.996264)" xlink:href="#CMR17-50"/>
       <use transform="translate(146.327979 0)scale(0.996264)" xlink:href="#CMR17-122"/>
       <use transform="translate(186.81364 0)scale(0.996264)" xlink:href="#CMR17-105"/>
       <use transform="translate(211.684698 0)scale(0.996264)" xlink:href="#CMR17-112"/>
       <use transform="translate(262.580068 0)scale(0.996264)" xlink:href="#CMR17-102"/>
       <use transform="translate(320.129547 0)scale(0.996264)" xlink:href="#CMR17-40"/>
       <use transform="translate(355.410314 0)scale(0.996264)" xlink:href="#CMR17-115"/>
       <use transform="translate(391.211652 0)scale(0.996264)" xlink:href="#CMSY10-50"/>
       <use transform="translate(457.629471 0)scale(0.996264)" xlink:href="#CMR17-91"/>
       <use transform="translate(482.500529 0)scale(0.996264)" xlink:href="#CMR17-50"/>
       <use transform="translate(528.191006 0)scale(0.996264)" xlink:href="#CMR17-46"/>
       <use transform="translate(553.062065 0)scale(0.996264)" xlink:href="#CMR17-53"/>
       <use transform="translate(598.752542 0)scale(0.996264)" xlink:href="#CMR17-44"/>
       <use transform="translate(653.699567 0)scale(0.996264)" xlink:href="#CMR17-53"/>
       <use transform="translate(699.390044 0)scale(0.996264)" xlink:href="#CMR17-93"/>
       <use transform="translate(724.261102 0)scale(0.996264)" xlink:href="#CMR17-41"/>
      </g>
     </g>
    </g>
    <g id="xtick_3">
     <g id="line2d_4"/>
     <g id="text_3">
      <!-- 5.2 sparse (s=4) -->
      <defs>
       <path d="M 36 25.828125 
C 36 32.375 36 35.84375 31.796875 39.734375 
C 28.09375 43 23.796875 44 20.40625 44 
C 12.5 44 6.796875 37.609375 6.796875 30.796875 
C 6.796875 27 9.796875 27 10.40625 27 
C 11.703125 27 14 27.78125 14 30.53125 
C 14 33 12.09375 34.078125 10.40625 34.078125 
C 10 34.078125 9.5 33.96875 9.203125 33.875 
C 11.296875 40.5 16.703125 42.40625 20.203125 42.40625 
C 25.203125 42.40625 30.703125 37.953125 30.703125 29.453125 
L 30.703125 25 
C 24.796875 25 17.703125 24.203125 12.09375 21.203125 
C 5.796875 17.703125 4 12.703125 4 8.90625 
C 4 1.203125 13 -1 18.296875 -1 
C 23.796875 -1 28.90625 2.171875 31.09375 7.984375 
C 31.296875 3.640625 34.09375 -0.28125 38.5 -0.28125 
C 40.59375 -0.28125 45.90625 1.09375 45.90625 8.859375 
L 45.90625 14.375 
L 44.09375 14.375 
L 44.09375 8.78125 
C 44.09375 2.78125 41.40625 2 40.09375 2 
C 36 2 36 7.15625 36 11.53125 
z
M 30.703125 13.59375 
C 30.703125 4.953125 24.5 0.59375 19 0.59375 
C 14 0.59375 10.09375 4.296875 10.09375 8.90625 
C 10.09375 11.890625 11.40625 17.1875 17.203125 20.390625 
C 22 23.09375 27.5 23.5 30.703125 23.5 
z
" id="CMR17-97"/>
       <path d="M 15 23.390625 
C 15 33 19.09375 42 26.59375 42 
C 27.296875 42 28 41.90625 28.703125 41.59375 
C 28.703125 41.59375 26.5 40.890625 26.5 38.3125 
C 26.5 35.90625 28.40625 34.90625 29.90625 34.90625 
C 31.09375 34.90625 33.296875 35.609375 33.296875 38.40625 
C 33.296875 41.609375 30.09375 43.59375 26.703125 43.59375 
C 19.09375 43.59375 15.796875 36.203125 14.796875 32.703125 
L 14.703125 32.703125 
L 14.703125 43.59375 
L 3.09375 42.5 
L 3.09375 39.90625 
C 9 39.90625 9.90625 39.296875 9.90625 34.5 
L 9.90625 6.6875 
C 9.90625 2.875 9.5 2.390625 3.09375 2.390625 
L 3.09375 -0.203125 
C 5.5 0 10.09375 0 12.703125 0 
C 15.59375 0 20.703125 0 23.40625 -0.203125 
L 23.40625 2.390625 
C 16.203125 2.390625 15 2.390625 15 6.875 
z
" id="CMR17-114"/>
       <path d="M 38.09375 23 
C 38.5 23.40625 38.5 23.609375 38.5 24.625 
C 38.5 34.96875 33.09375 44 21.703125 44 
C 11.09375 44 2.703125 33.890625 2.703125 21.609375 
C 2.703125 8.609375 12.203125 -1 22.796875 -1 
C 34 -1 38.40625 9.484375 38.40625 11.5625 
C 38.40625 12.25 37.796875 12.25 37.59375 12.25 
C 36.90625 12.25 36.796875 12.046875 36.40625 10.875 
C 34.203125 4.140625 28.703125 0.796875 23.5 0.796875 
C 19.203125 0.796875 14.90625 3.171875 12.203125 7.5 
C 9.09375 12.546875 9.09375 18.375 9.09375 23 
z
M 9.203125 24.5 
C 9.90625 39.140625 17.59375 42.40625 21.59375 42.40625 
C 28.40625 42.40625 33 35.890625 33.09375 24.5 
z
" id="CMR17-101"/>
       <path d="M 64.296875 31.515625 
C 65.796875 31.515625 67.296875 31.515625 67.296875 33.203125 
C 67.296875 35 65.59375 35 63.90625 35 
L 8 35 
C 6.296875 35 4.59375 35 4.59375 33.203125 
C 4.59375 31.515625 6.09375 31.515625 7.59375 31.515625 
z
M 63.90625 14 
C 65.59375 14 67.296875 14 67.296875 15.796875 
C 67.296875 17.484375 65.796875 17.484375 64.296875 17.484375 
L 7.59375 17.484375 
C 6.09375 17.484375 4.59375 17.484375 4.59375 15.796875 
C 4.59375 14 6.296875 14 8 14 
z
" id="CMR17-61"/>
      </defs>
      <g style="fill:#262626;" transform="translate(160.454362 112.129795)rotate(-340)scale(0.1 -0.1)">
       <use transform="scale(0.996264)" xlink:href="#CMR17-53"/>
       <use transform="translate(45.690477 0)scale(0.996264)" xlink:href="#CMR17-46"/>
       <use transform="translate(70.561536 0)scale(0.996264)" xlink:href="#CMR17-50"/>
       <use transform="translate(146.327979 0)scale(0.996264)" xlink:href="#CMR17-115"/>
       <use transform="translate(182.129317 0)scale(0.996264)" xlink:href="#CMR17-112"/>
       <use transform="translate(233.024686 0)scale(0.996264)" xlink:href="#CMR17-97"/>
       <use transform="translate(278.715164 0)scale(0.996264)" xlink:href="#CMR17-114"/>
       <use transform="translate(313.995931 0)scale(0.996264)" xlink:href="#CMR17-115"/>
       <use transform="translate(349.797269 0)scale(0.996264)" xlink:href="#CMR17-101"/>
       <use transform="translate(420.358896 0)scale(0.996264)" xlink:href="#CMR17-40"/>
       <use transform="translate(455.639664 0)scale(0.996264)" xlink:href="#CMR17-115"/>
       <use transform="translate(491.441001 0)scale(0.996264)" xlink:href="#CMR17-61"/>
       <use transform="translate(563.15579 0)scale(0.996264)" xlink:href="#CMR17-52"/>
       <use transform="translate(608.846267 0)scale(0.996264)" xlink:href="#CMR17-41"/>
      </g>
     </g>
    </g>
    <g id="xtick_4">
     <g id="line2d_5"/>
     <g id="text_4">
      <!-- 3.1 sequence (l=24) -->
      <defs>
       <path d="M 22.09375 33.703125 
C 31 33.703125 34.90625 25.96875 34.90625 17.03125 
C 34.90625 5 28.5 0.390625 22.703125 0.390625 
C 17.40625 0.390625 8.796875 3.03125 6.09375 10.828125 
C 6.59375 10.625 7.09375 10.625 7.59375 10.625 
C 10 10.625 11.796875 12.21875 11.796875 14.8125 
C 11.796875 17.703125 9.59375 19 7.59375 19 
C 5.90625 19 3.296875 18.203125 3.296875 14.46875 
C 3.296875 5.234375 12.296875 -2 22.90625 -2 
C 34 -2 42.5 6.71875 42.5 16.953125 
C 42.5 26.671875 34.5 33.703125 25 34.796875 
C 32.59375 36.375 39.90625 43.0625 39.90625 52.015625 
C 39.90625 59.6875 32 65.296875 23 65.296875 
C 13.90625 65.296875 5.90625 59.828125 5.90625 52.015625 
C 5.90625 48.59375 8.5 48 9.796875 48 
C 11.90625 48 13.703125 49.296875 13.703125 51.890625 
C 13.703125 54.46875 11.90625 55.765625 9.796875 55.765625 
C 9.40625 55.765625 8.90625 55.765625 8.5 55.578125 
C 11.40625 61.859375 19.296875 63 22.796875 63 
C 26.296875 63 32.90625 61.328125 32.90625 51.875 
C 32.90625 49.109375 32.5 44.1875 29.09375 39.84375 
C 26.09375 36 22.703125 36 19.40625 35.6875 
C 18.90625 35.6875 16.59375 35.453125 16.203125 35.453125 
C 15.5 35.359375 15.09375 35.265625 15.09375 34.5 
C 15.09375 33.796875 15.203125 33.703125 17.203125 33.703125 
z
" id="CMR17-51"/>
       <path d="M 26.59375 63.40625 
C 26.59375 65.5 26.5 65.5 25.09375 65.5 
C 21.203125 61.1875 15.296875 59.796875 9.703125 59.796875 
C 9.40625 59.796875 8.90625 59.796875 8.796875 59.5 
C 8.703125 59.296875 8.703125 59.09375 8.703125 57 
C 11.796875 57 17 57.59375 21 59.984375 
L 21 7.203125 
C 21 3.6875 20.796875 2.5 12.203125 2.5 
L 9.203125 2.5 
L 9.203125 0 
C 14 0 19 0 23.796875 0 
C 28.59375 0 33.59375 0 38.40625 0 
L 38.40625 2.5 
L 35.40625 2.5 
C 26.796875 2.5 26.59375 3.59375 26.59375 7.15625 
z
" id="CMR17-49"/>
       <path d="M 41.09375 43.78125 
L 39.5 43.78125 
L 36.5 33.9375 
C 34.203125 39.203125 30 43.78125 23.296875 43.78125 
C 13.09375 43.78125 3.296875 34.734375 3.296875 21.609375 
C 3.296875 8.5625 12.5 -0.59375 22.5 -0.59375 
C 30.203125 -0.59375 34.5 5.28125 35.796875 7.46875 
L 35.796875 -12.328125 
C 35.796875 -16.109375 35.40625 -16.609375 29 -16.609375 
L 29 -19.1875 
C 31.40625 -19 35.796875 -19 38.40625 -19 
C 41 -19 45.5 -19 47.90625 -19.1875 
L 47.90625 -16.609375 
C 41.5 -16.609375 41.09375 -16.203125 41.09375 -12.328125 
z
M 36 13.84375 
C 36 9.5625 32.40625 5.578125 32.09375 5.28125 
C 29 1.796875 25.40625 1 23 1 
C 15.5 1 9.703125 10.453125 9.703125 21.484375 
C 9.703125 33.140625 16.296875 42 24 42 
C 32 42 36 32.9375 36 27.765625 
z
" id="CMR17-113"/>
       <path d="M 29.40625 42.078125 
L 29.40625 39.5 
C 35.296875 39.5 36.203125 38.890625 36.203125 34.15625 
L 36.203125 16.125 
C 36.203125 7.8125 31.703125 0.59375 24.296875 0.59375 
C 16.09375 0.59375 15.40625 5.4375 15.40625 10.59375 
L 15.40625 43.171875 
L 3.296875 42.078125 
L 3.296875 39.5 
C 7.296875 39.5 10 39.5 10.09375 35.53125 
L 10.09375 16.53125 
C 10.09375 9.890625 10.09375 5.640625 12.703125 2.859375 
C 14 1.578125 16.5 -1 23.703125 -1 
C 32.203125 -1 35.5 5.890625 36.296875 7.90625 
L 36.40625 7.90625 
L 36.40625 -0.984375 
L 48.296875 -0.984375 
L 48.296875 2 
C 42.40625 2 41.5 2.59375 41.5 7.390625 
L 41.5 43.171875 
z
" id="CMR17-117"/>
       <path d="M 41.5 30.203125 
C 41.5 35.296875 40.5 43.59375 28.703125 43.59375 
C 20.796875 43.59375 16.703125 37.5 15.203125 33.5 
L 15.09375 33.5 
L 15.09375 43.59375 
L 3.296875 42.5 
L 3.296875 39.90625 
C 9.203125 39.90625 10.09375 39.296875 10.09375 34.5 
L 10.09375 6.6875 
C 10.09375 2.875 9.703125 2.390625 3.296875 2.390625 
L 3.296875 -0.203125 
C 5.703125 0 10.09375 0 12.703125 0 
C 15.296875 0 19.796875 0 22.203125 -0.203125 
L 22.203125 2.390625 
C 15.796875 2.390625 15.40625 2.78125 15.40625 6.6875 
L 15.40625 25.90625 
C 15.40625 35.109375 21 42 28 42 
C 35.40625 42 36.203125 35.40625 36.203125 30.59375 
L 36.203125 6.6875 
C 36.203125 2.875 35.796875 2.390625 29.40625 2.390625 
L 29.40625 -0.203125 
C 31.796875 0 36.203125 0 38.796875 0 
C 41.40625 0 45.90625 0 48.296875 -0.203125 
L 48.296875 2.390625 
C 41.90625 2.390625 41.5 2.78125 41.5 6.6875 
z
" id="CMR17-110"/>
      </defs>
      <g style="fill:#262626;" transform="translate(205.722837 112.129795)rotate(-340)scale(0.1 -0.1)">
       <use transform="scale(0.996264)" xlink:href="#CMR17-51"/>
       <use transform="translate(45.690477 0)scale(0.996264)" xlink:href="#CMR17-46"/>
       <use transform="translate(70.561536 0)scale(0.996264)" xlink:href="#CMR17-49"/>
       <use transform="translate(146.327979 0)scale(0.996264)" xlink:href="#CMR17-115"/>
       <use transform="translate(182.129317 0)scale(0.996264)" xlink:href="#CMR17-101"/>
       <use transform="translate(222.614977 0)scale(0.996264)" xlink:href="#CMR17-113"/>
       <use transform="translate(270.907893 0)scale(0.996264)" xlink:href="#CMR17-117"/>
       <use transform="translate(321.803263 0)scale(0.996264)" xlink:href="#CMR17-101"/>
       <use transform="translate(362.288923 0)scale(0.996264)" xlink:href="#CMR17-110"/>
       <use transform="translate(413.184293 0)scale(0.996264)" xlink:href="#CMR17-99"/>
       <use transform="translate(453.669953 0)scale(0.996264)" xlink:href="#CMR17-101"/>
       <use transform="translate(524.23158 0)scale(0.996264)" xlink:href="#CMR17-40"/>
       <use transform="translate(559.512348 0)scale(0.996264)" xlink:href="#CMR17-108"/>
       <use transform="translate(584.383407 0)scale(0.996264)" xlink:href="#CMR17-61"/>
       <use transform="translate(656.098195 0)scale(0.996264)" xlink:href="#CMR17-50"/>
       <use transform="translate(701.788672 0)scale(0.996264)" xlink:href="#CMR17-52"/>
       <use transform="translate(747.479149 0)scale(0.996264)" xlink:href="#CMR17-41"/>
      </g>
     </g>
    </g>
    <g id="xtick_5">
     <g id="line2d_6"/>
     <g id="text_5">
      <!-- 4.1 zipf (s$\in$[1, 2.5]) -->
      <g style="fill:#262626;" transform="translate(250.991311 112.129795)rotate(-340)scale(0.1 -0.1)">
       <use transform="scale(0.996264)" xlink:href="#CMR17-52"/>
       <use transform="translate(45.690477 0)scale(0.996264)" xlink:href="#CMR17-46"/>
       <use transform="translate(70.561536 0)scale(0.996264)" xlink:href="#CMR17-49"/>
       <use transform="translate(146.327979 0)scale(0.996264)" xlink:href="#CMR17-122"/>
       <use transform="translate(186.81364 0)scale(0.996264)" xlink:href="#CMR17-105"/>
       <use transform="translate(211.684698 0)scale(0.996264)" xlink:href="#CMR17-112"/>
       <use transform="translate(262.580068 0)scale(0.996264)" xlink:href="#CMR17-102"/>
       <use transform="translate(320.129547 0)scale(0.996264)" xlink:href="#CMR17-40"/>
       <use transform="translate(355.410314 0)scale(0.996264)" xlink:href="#CMR17-115"/>
       <use transform="translate(391.211652 0)scale(0.996264)" xlink:href="#CMSY10-50"/>
       <use transform="translate(457.629471 0)scale(0.996264)" xlink:href="#CMR17-91"/>
       <use transform="translate(482.500529 0)scale(0.996264)" xlink:href="#CMR17-49"/>
       <use transform="translate(528.191006 0)scale(0.996264)" xlink:href="#CMR17-44"/>
       <use transform="translate(583.138031 0)scale(0.996264)" xlink:href="#CMR17-50"/>
       <use transform="translate(628.828508 0)scale(0.996264)" xlink:href="#CMR17-46"/>
       <use transform="translate(653.699567 0)scale(0.996264)" xlink:href="#CMR17-53"/>
       <use transform="translate(699.390044 0)scale(0.996264)" xlink:href="#CMR17-93"/>
       <use transform="translate(724.261102 0)scale(0.996264)" xlink:href="#CMR17-41"/>
      </g>
     </g>
    </g>
    <g id="xtick_6">
     <g id="line2d_7"/>
     <g id="text_6">
      <!-- 5.1 sparse (s=1) -->
      <g style="fill:#262626;" transform="translate(296.259786 112.129795)rotate(-340)scale(0.1 -0.1)">
       <use transform="scale(0.996264)" xlink:href="#CMR17-53"/>
       <use transform="translate(45.690477 0)scale(0.996264)" xlink:href="#CMR17-46"/>
       <use transform="translate(70.561536 0)scale(0.996264)" xlink:href="#CMR17-49"/>
       <use transform="translate(146.327979 0)scale(0.996264)" xlink:href="#CMR17-115"/>
       <use transform="translate(182.129317 0)scale(0.996264)" xlink:href="#CMR17-112"/>
       <use transform="translate(233.024686 0)scale(0.996264)" xlink:href="#CMR17-97"/>
       <use transform="translate(278.715164 0)scale(0.996264)" xlink:href="#CMR17-114"/>
       <use transform="translate(313.995931 0)scale(0.996264)" xlink:href="#CMR17-115"/>
       <use transform="translate(349.797269 0)scale(0.996264)" xlink:href="#CMR17-101"/>
       <use transform="translate(420.358896 0)scale(0.996264)" xlink:href="#CMR17-40"/>
       <use transform="translate(455.639664 0)scale(0.996264)" xlink:href="#CMR17-115"/>
       <use transform="translate(491.441001 0)scale(0.996264)" xlink:href="#CMR17-61"/>
       <use transform="translate(563.15579 0)scale(0.996264)" xlink:href="#CMR17-49"/>
       <use transform="translate(608.846267 0)scale(0.996264)" xlink:href="#CMR17-41"/>
      </g>
     </g>
    </g>
    <g id="xtick_7">
     <g id="line2d_8"/>
     <g id="text_7">
      <!-- 3.2 sequence (l=120) -->
      <defs>
       <path d="M 42 31.640625 
C 42 37.75 41.90625 48.125 37.703125 56.109375 
C 34 63.109375 28.09375 65.59375 22.90625 65.59375 
C 18.09375 65.59375 12 63.40625 8.203125 56.203125 
C 4.203125 48.71875 3.796875 39.4375 3.796875 31.640625 
C 3.796875 25.953125 3.90625 17.28125 7 9.671875 
C 11.296875 -0.609375 19 -2 22.90625 -2 
C 27.5 -2 34.5 -0.109375 38.59375 9.375 
C 41.59375 16.28125 42 24.359375 42 31.640625 
z
M 22.90625 -0.40625 
C 16.5 -0.40625 12.703125 5.078125 11.296875 12.6875 
C 10.203125 18.5625 10.203125 27.15625 10.203125 32.75 
C 10.203125 40.4375 10.203125 46.828125 11.5 52.921875 
C 13.40625 61.390625 19 64 22.90625 64 
C 27 64 32.296875 61.296875 34.203125 53.125 
C 35.5 47.4375 35.59375 40.734375 35.59375 32.75 
C 35.59375 26.25 35.59375 18.265625 34.40625 12.375 
C 32.296875 1.484375 26.40625 -0.40625 22.90625 -0.40625 
z
" id="CMR17-48"/>
      </defs>
      <g style="fill:#262626;" transform="translate(341.52826 112.129795)rotate(-340)scale(0.1 -0.1)">
       <use transform="scale(0.996264)" xlink:href="#CMR17-51"/>
       <use transform="translate(45.690477 0)scale(0.996264)" xlink:href="#CMR17-46"/>
       <use transform="translate(70.561536 0)scale(0.996264)" xlink:href="#CMR17-50"/>
       <use transform="translate(146.327979 0)scale(0.996264)" xlink:href="#CMR17-115"/>
       <use transform="translate(182.129317 0)scale(0.996264)" xlink:href="#CMR17-101"/>
       <use transform="translate(222.614977 0)scale(0.996264)" xlink:href="#CMR17-113"/>
       <use transform="translate(270.907893 0)scale(0.996264)" xlink:href="#CMR17-117"/>
       <use transform="translate(321.803263 0)scale(0.996264)" xlink:href="#CMR17-101"/>
       <use transform="translate(362.288923 0)scale(0.996264)" xlink:href="#CMR17-110"/>
       <use transform="translate(413.184293 0)scale(0.996264)" xlink:href="#CMR17-99"/>
       <use transform="translate(453.669953 0)scale(0.996264)" xlink:href="#CMR17-101"/>
       <use transform="translate(524.23158 0)scale(0.996264)" xlink:href="#CMR17-40"/>
       <use transform="translate(559.512348 0)scale(0.996264)" xlink:href="#CMR17-108"/>
       <use transform="translate(584.383407 0)scale(0.996264)" xlink:href="#CMR17-61"/>
       <use transform="translate(656.098195 0)scale(0.996264)" xlink:href="#CMR17-49"/>
       <use transform="translate(701.788672 0)scale(0.996264)" xlink:href="#CMR17-50"/>
       <use transform="translate(747.479149 0)scale(0.996264)" xlink:href="#CMR17-48"/>
       <use transform="translate(793.169626 0)scale(0.996264)" xlink:href="#CMR17-41"/>
      </g>
     </g>
    </g>
    <g id="xtick_8">
     <g id="line2d_9"/>
     <g id="text_8">
      <!-- 1. uniform -->
      <defs>
       <path d="M 43.09375 21.1875 
C 43.09375 34 33.796875 44 22.90625 44 
C 12 44 2.703125 34 2.703125 21.1875 
C 2.703125 8.609375 12 -1 22.90625 -1 
C 33.796875 -1 43.09375 8.609375 43.09375 21.1875 
z
M 22.90625 0.796875 
C 18.203125 0.796875 14.203125 3.59375 11.90625 7.5 
C 9.40625 11.984375 9.09375 17.59375 9.09375 22 
C 9.09375 26.203125 9.296875 31.40625 11.90625 35.90625 
C 13.90625 39.203125 17.796875 42.40625 22.90625 42.40625 
C 27.40625 42.40625 31.203125 39.90625 33.59375 36.40625 
C 36.703125 31.703125 36.703125 25.109375 36.703125 22 
C 36.703125 18.09375 36.5 12.109375 33.796875 7.296875 
C 31 2.703125 26.703125 0.796875 22.90625 0.796875 
z
" id="CMR17-111"/>
       <path d="M 67.59375 30.203125 
C 67.59375 35.1875 66.703125 43.59375 54.796875 43.59375 
C 48 43.59375 43.296875 39 41.5 33.609375 
L 41.40625 33.609375 
C 40.203125 41.8125 34.296875 43.59375 28.703125 43.59375 
C 20.796875 43.59375 16.703125 37.5 15.203125 33.5 
L 15.09375 33.5 
L 15.09375 43.59375 
L 3.296875 42.5 
L 3.296875 39.90625 
C 9.203125 39.90625 10.09375 39.296875 10.09375 34.5 
L 10.09375 6.6875 
C 10.09375 2.875 9.703125 2.390625 3.296875 2.390625 
L 3.296875 -0.203125 
C 5.703125 0 10.09375 0 12.703125 0 
C 15.296875 0 19.796875 0 22.203125 -0.203125 
L 22.203125 2.390625 
C 15.796875 2.390625 15.40625 2.78125 15.40625 6.6875 
L 15.40625 25.90625 
C 15.40625 35.109375 21 42 28 42 
C 35.40625 42 36.203125 35.40625 36.203125 30.59375 
L 36.203125 6.6875 
C 36.203125 2.875 35.796875 2.390625 29.40625 2.390625 
L 29.40625 -0.203125 
C 31.796875 0 36.203125 0 38.796875 0 
C 41.40625 0 45.90625 0 48.296875 -0.203125 
L 48.296875 2.390625 
C 41.90625 2.390625 41.5 2.78125 41.5 6.6875 
L 41.5 25.90625 
C 41.5 35.109375 47.09375 42 54.09375 42 
C 61.5 42 62.296875 35.40625 62.296875 30.59375 
L 62.296875 6.6875 
C 62.296875 2.875 61.90625 2.390625 55.5 2.390625 
L 55.5 -0.203125 
C 57.90625 0 62.296875 0 64.90625 0 
C 67.5 0 72 0 74.40625 -0.203125 
L 74.40625 2.390625 
C 68 2.390625 67.59375 2.78125 67.59375 6.6875 
z
" id="CMR17-109"/>
      </defs>
      <g style="fill:#262626;" transform="translate(386.607433 111.609692)rotate(-340)scale(0.1 -0.1)">
       <use transform="scale(0.996264)" xlink:href="#CMR17-49"/>
       <use transform="translate(45.690477 0)scale(0.996264)" xlink:href="#CMR17-46"/>
       <use transform="translate(111.047196 0)scale(0.996264)" xlink:href="#CMR17-117"/>
       <use transform="translate(161.942566 0)scale(0.996264)" xlink:href="#CMR17-110"/>
       <use transform="translate(212.837936 0)scale(0.996264)" xlink:href="#CMR17-105"/>
       <use transform="translate(237.708994 0)scale(0.996264)" xlink:href="#CMR17-102"/>
       <use transform="translate(265.182507 0)scale(0.996264)" xlink:href="#CMR17-111"/>
       <use transform="translate(310.872984 0)scale(0.996264)" xlink:href="#CMR17-114"/>
       <use transform="translate(346.153751 0)scale(0.996264)" xlink:href="#CMR17-109"/>
      </g>
     </g>
    </g>
   </g>
   <g id="matplotlib.axis_2">
    <g id="ytick_1">
     <g id="line2d_10">
      <path clip-path="url(#p3cd6524938)" d="M 46.43132 98.10843 
L 408.579116 98.10843 
" style="fill:none;stroke:#cccccc;stroke-linecap:round;"/>
     </g>
     <g id="line2d_11"/>
     <g id="text_9">
      <!-- $0.0$ -->
      <defs>
       <path d="M 18.40625 4.796875 
C 18.40625 7.6875 16 9.671875 13.59375 9.671875 
C 10.703125 9.671875 8.703125 7.28125 8.703125 4.890625 
C 8.703125 2 11.09375 0 13.5 0 
C 16.40625 0 18.40625 2.390625 18.40625 4.796875 
z
" id="CMMI12-58"/>
      </defs>
      <g style="fill:#262626;" transform="translate(26.701241 101.567679)scale(0.1 -0.1)">
       <use transform="scale(0.996264)" xlink:href="#CMR17-48"/>
       <use transform="translate(45.690477 0)scale(0.996264)" xlink:href="#CMMI12-58"/>
       <use transform="translate(72.787654 0)scale(0.996264)" xlink:href="#CMR17-48"/>
      </g>
     </g>
    </g>
    <g id="ytick_2">
     <g id="line2d_12">
      <path clip-path="url(#p3cd6524938)" d="M 46.43132 57.26384 
L 408.579116 57.26384 
" style="fill:none;stroke:#cccccc;stroke-linecap:round;"/>
     </g>
     <g id="line2d_13"/>
     <g id="text_10">
      <!-- $0.5$ -->
      <g style="fill:#262626;" transform="translate(26.701241 60.723089)scale(0.1 -0.1)">
       <use transform="scale(0.996264)" xlink:href="#CMR17-48"/>
       <use transform="translate(45.690477 0)scale(0.996264)" xlink:href="#CMMI12-58"/>
       <use transform="translate(72.787654 0)scale(0.996264)" xlink:href="#CMR17-53"/>
      </g>
     </g>
    </g>
    <g id="ytick_3">
     <g id="line2d_14">
      <path clip-path="url(#p3cd6524938)" d="M 46.43132 16.419249 
L 408.579116 16.419249 
" style="fill:none;stroke:#cccccc;stroke-linecap:round;"/>
     </g>
     <g id="line2d_15"/>
     <g id="text_11">
      <!-- $1.0$ -->
      <g style="fill:#262626;" transform="translate(26.701241 19.878498)scale(0.1 -0.1)">
       <use transform="scale(0.996264)" xlink:href="#CMR17-49"/>
       <use transform="translate(45.690477 0)scale(0.996264)" xlink:href="#CMMI12-58"/>
       <use transform="translate(72.787654 0)scale(0.996264)" xlink:href="#CMR17-48"/>
      </g>
     </g>
    </g>
    <g id="text_12">
     <!-- Waiting time -->
     <defs>
      <path d="M 86.296875 58.8125 
C 87.203125 61.5 88.703125 65 94.5 65 
L 94.5 67.59375 
C 92.796875 67.59375 89.296875 67.59375 87.5 67.59375 
C 85 67.59375 80.59375 67.59375 78.203125 67.6875 
L 78.203125 65 
C 82.703125 65 84.59375 62.5 84.59375 60.109375 
C 84.59375 59.40625 84.5 59.015625 84.09375 57.921875 
L 68.59375 8.671875 
L 52.296875 60.515625 
C 52 61.515625 51.90625 61.921875 51.90625 62.3125 
C 51.90625 65 56.296875 65 58.203125 65 
L 58.203125 67.59375 
C 55.296875 67.59375 50.296875 67.59375 47.203125 67.59375 
C 44.703125 67.59375 40.203125 67.59375 37.90625 67.6875 
L 37.90625 65 
C 42.5 65 43.703125 64.703125 44.703125 62.921875 
C 45.09375 62.015625 46.703125 56.84375 46.703125 56.546875 
C 46.703125 56.140625 46.5 55.546875 46.40625 55.25 
L 31.703125 8.765625 
L 15.40625 60.421875 
C 14.90625 61.828125 14.90625 62.015625 14.90625 62.21875 
C 14.90625 65 19.296875 65 21.296875 65 
L 21.296875 67.59375 
C 18.40625 67.59375 13.40625 67.59375 10.296875 67.59375 
C 7.703125 67.59375 3.296875 67.59375 0.90625 67.6875 
L 0.90625 65 
C 6.90625 65 7.296875 64.40625 8.296875 61.21875 
L 27.796875 -0.3125 
C 28.296875 -1.796875 28.296875 -2 29.203125 -2 
C 30 -2 30.296875 -1.796875 30.703125 -0.40625 
L 47.703125 53.640625 
L 64.703125 -0.40625 
C 65.09375 -1.796875 65.40625 -2 66.203125 -2 
C 67.09375 -2 67.09375 -1.796875 67.59375 -0.3125 
z
" id="CMR17-87"/>
      <path d="M 15.09375 40 
L 29.09375 40 
L 29.09375 42.578125 
L 15.09375 42.578125 
L 15.09375 61 
L 13.296875 61 
C 13.09375 50.703125 9.59375 41.6875 1.09375 41.6875 
L 1.09375 40 
L 9.796875 40 
L 9.796875 12.046875 
C 9.796875 10.15625 9.796875 -1 21.40625 -1 
C 27.296875 -1 30.703125 4.78125 30.703125 12.140625 
L 30.703125 17.8125 
L 28.90625 17.8125 
L 28.90625 12.234375 
C 28.90625 5.375 26.203125 0.796875 22 0.796875 
C 19.09375 0.796875 15.09375 2.78125 15.09375 11.84375 
z
" id="CMR17-116"/>
      <path d="M 11.09375 18.1875 
C 13 16.6875 16.296875 15 20.296875 15 
C 28.203125 15 35 21.203125 35 29.5 
C 35 32.09375 34.203125 36.09375 31.203125 39.203125 
C 34 42.0625 38.09375 43 40.40625 43 
C 40.796875 43 41.40625 43 41.90625 42.71875 
C 41.5 42.625 40.59375 42.234375 40.59375 40.703125 
C 40.59375 39.484375 41.5 38.609375 42.796875 38.609375 
C 44.296875 38.609375 45.09375 39.578125 45.09375 40.84375 
C 45.09375 42.671875 43.59375 44.59375 40.40625 44.59375 
C 36.40625 44.59375 32.90625 42.78125 30.09375 40.3125 
C 27.09375 43.015625 23.5 44 20.296875 44 
C 12.40625 44 5.59375 37.796875 5.59375 29.5 
C 5.59375 23.78125 8.90625 20.1875 9.90625 19.1875 
C 6.90625 15.6875 6.90625 11.609375 6.90625 11.109375 
C 6.90625 8.515625 7.90625 4.71875 11.296875 2.625 
C 6.09375 1.328125 2 -2.640625 2 -7.59375 
C 2 -14.734375 11.5 -20 22.90625 -20 
C 33.90625 -20 43.796875 -14.9375 43.796875 -7.484375 
C 43.796875 6 29 6 21.296875 6 
C 19 6 14.90625 6 14.40625 6.109375 
C 11.296875 6.609375 9.203125 9.40625 9.203125 12.90625 
C 9.203125 13.796875 9.203125 16 11.09375 18.1875 
z
M 20.296875 16.6875 
C 11.5 16.6875 11.5 27.5 11.5 29.515625 
C 11.5 31.5 11.5 42.3125 20.296875 42.3125 
C 29.09375 42.3125 29.09375 31.5 29.09375 29.515625 
C 29.09375 27.5 29.09375 16.6875 20.296875 16.6875 
z
M 22.90625 -18.296875 
C 12.90625 -18.296875 6 -13.046875 6 -7.59375 
C 6 -4.515625 7.703125 -1.640625 9.90625 -0.0625 
C 12.40625 1.625 13.40625 1.625 20.203125 1.625 
C 28.40625 1.625 39.796875 1.625 39.796875 -7.59375 
C 39.796875 -13.046875 32.90625 -18.296875 22.90625 -18.296875 
z
" id="CMR17-103"/>
     </defs>
     <g style="fill:#262626;" transform="translate(20.570347 88.618534)rotate(-90)scale(0.11 -0.11)">
      <use transform="scale(0.996264)" xlink:href="#CMR17-87"/>
      <use transform="translate(87.289395 0)scale(0.996264)" xlink:href="#CMR17-97"/>
      <use transform="translate(132.979872 0)scale(0.996264)" xlink:href="#CMR17-105"/>
      <use transform="translate(157.85093 0)scale(0.996264)" xlink:href="#CMR17-116"/>
      <use transform="translate(193.131698 0)scale(0.996264)" xlink:href="#CMR17-105"/>
      <use transform="translate(218.002756 0)scale(0.996264)" xlink:href="#CMR17-110"/>
      <use transform="translate(268.898126 0)scale(0.996264)" xlink:href="#CMR17-103"/>
      <use transform="translate(344.66457 0)scale(0.996264)" xlink:href="#CMR17-116"/>
      <use transform="translate(379.945337 0)scale(0.996264)" xlink:href="#CMR17-105"/>
      <use transform="translate(404.816396 0)scale(0.996264)" xlink:href="#CMR17-109"/>
      <use transform="translate(481.735986 0)scale(0.996264)" xlink:href="#CMR17-101"/>
     </g>
    </g>
   </g>
   <g id="patch_3">
    <path clip-path="url(#p3cd6524938)" d="M 58.880151 98.10843 
L 79.250964 98.10843 
L 79.250964 98.10843 
L 58.880151 98.10843 
L 58.880151 98.10843 
z
" style="fill:#a4add9;fill-opacity:0.7;stroke:#727272;stroke-linejoin:miter;stroke-width:1.2;"/>
   </g>
   <g id="patch_4">
    <path clip-path="url(#p3cd6524938)" d="M 104.148625 98.10843 
L 124.519439 98.10843 
L 124.519439 98.10843 
L 104.148625 98.10843 
L 104.148625 98.10843 
z
" style="fill:#a4add9;fill-opacity:0.7;stroke:#727272;stroke-linejoin:miter;stroke-width:1.2;"/>
   </g>
   <g id="patch_5">
    <path clip-path="url(#p3cd6524938)" d="M 149.4171 98.10843 
L 169.787913 98.10843 
L 169.787913 35.270599 
L 149.4171 35.270599 
L 149.4171 98.10843 
z
" style="fill:#a4add9;fill-opacity:0.7;stroke:#727272;stroke-linejoin:miter;stroke-width:1.2;"/>
   </g>
   <g id="patch_6">
    <path clip-path="url(#p3cd6524938)" d="M 194.685574 98.10843 
L 215.056388 98.10843 
L 215.056388 40.926003 
L 194.685574 40.926003 
L 194.685574 98.10843 
z
" style="fill:#a4add9;fill-opacity:0.7;stroke:#727272;stroke-linejoin:miter;stroke-width:1.2;"/>
   </g>
   <g id="patch_7">
    <path clip-path="url(#p3cd6524938)" d="M 239.954049 77.686135 
L 260.324862 77.686135 
L 260.324862 16.419249 
L 239.954049 16.419249 
L 239.954049 77.686135 
z
" style="fill:#a4add9;fill-opacity:0.7;stroke:#727272;stroke-linejoin:miter;stroke-width:1.2;"/>
   </g>
   <g id="patch_8">
    <path clip-path="url(#p3cd6524938)" d="M 285.222523 57.26384 
L 305.593337 57.26384 
L 305.593337 28.089132 
L 285.222523 28.089132 
L 285.222523 57.26384 
z
" style="fill:#a4add9;fill-opacity:0.7;stroke:#727272;stroke-linejoin:miter;stroke-width:1.2;"/>
   </g>
   <g id="patch_9">
    <path clip-path="url(#p3cd6524938)" d="M 330.490998 38.698117 
L 350.861811 38.698117 
L 350.861811 16.419249 
L 330.490998 16.419249 
L 330.490998 38.698117 
z
" style="fill:#a4add9;fill-opacity:0.7;stroke:#727272;stroke-linejoin:miter;stroke-width:1.2;"/>
   </g>
   <g id="patch_10">
    <path clip-path="url(#p3cd6524938)" d="M 375.759472 36.841544 
L 396.130286 36.841544 
L 396.130286 16.419249 
L 375.759472 16.419249 
L 375.759472 36.841544 
z
" style="fill:#a4add9;fill-opacity:0.7;stroke:#727272;stroke-linejoin:miter;stroke-width:1.2;"/>
   </g>
   <g id="line2d_16">
    <path clip-path="url(#p3cd6524938)" d="M 69.065558 98.10843 
L 69.065558 98.10843 
" style="fill:none;stroke:#727272;stroke-linecap:round;stroke-width:1.2;"/>
   </g>
   <g id="line2d_17">
    <path clip-path="url(#p3cd6524938)" d="M 69.065558 98.10843 
L 69.065558 98.10843 
" style="fill:none;stroke:#727272;stroke-linecap:round;stroke-width:1.2;"/>
   </g>
   <g id="line2d_18">
    <path clip-path="url(#p3cd6524938)" d="M 63.972854 98.10843 
L 74.158261 98.10843 
" style="fill:none;stroke:#727272;stroke-linecap:round;stroke-width:1.2;"/>
   </g>
   <g id="line2d_19">
    <path clip-path="url(#p3cd6524938)" d="M 63.972854 98.10843 
L 74.158261 98.10843 
" style="fill:none;stroke:#727272;stroke-linecap:round;stroke-width:1.2;"/>
   </g>
   <g id="line2d_20"/>
   <g id="line2d_21">
    <path clip-path="url(#p3cd6524938)" d="M 114.334032 98.10843 
L 114.334032 98.10843 
" style="fill:none;stroke:#727272;stroke-linecap:round;stroke-width:1.2;"/>
   </g>
   <g id="line2d_22">
    <path clip-path="url(#p3cd6524938)" d="M 114.334032 98.10843 
L 114.334032 98.10843 
" style="fill:none;stroke:#727272;stroke-linecap:round;stroke-width:1.2;"/>
   </g>
   <g id="line2d_23">
    <path clip-path="url(#p3cd6524938)" d="M 109.241329 98.10843 
L 119.426735 98.10843 
" style="fill:none;stroke:#727272;stroke-linecap:round;stroke-width:1.2;"/>
   </g>
   <g id="line2d_24">
    <path clip-path="url(#p3cd6524938)" d="M 109.241329 98.10843 
L 119.426735 98.10843 
" style="fill:none;stroke:#727272;stroke-linecap:round;stroke-width:1.2;"/>
   </g>
   <g id="line2d_25">
    <defs>
     <path d="M -0 2.828427 
L 1.697056 0 
L 0 -2.828427 
L -1.697056 -0 
z
" id="m9e8f777cf2"/>
    </defs>
    <g clip-path="url(#p3cd6524938)">
     <use style="fill:#727272;" x="114.334032" xlink:href="#m9e8f777cf2" y="81.770594"/>
     <use style="fill:#727272;" x="114.334032" xlink:href="#m9e8f777cf2" y="84.493567"/>
     <use style="fill:#727272;" x="114.334032" xlink:href="#m9e8f777cf2" y="86.438547"/>
     <use style="fill:#727272;" x="114.334032" xlink:href="#m9e8f777cf2" y="16.419249"/>
     <use style="fill:#727272;" x="114.334032" xlink:href="#m9e8f777cf2" y="89.031854"/>
     <use style="fill:#727272;" x="114.334032" xlink:href="#m9e8f777cf2" y="87.897283"/>
     <use style="fill:#727272;" x="114.334032" xlink:href="#m9e8f777cf2" y="89.031854"/>
     <use style="fill:#727272;" x="114.334032" xlink:href="#m9e8f777cf2" y="16.419249"/>
     <use style="fill:#727272;" x="114.334032" xlink:href="#m9e8f777cf2" y="16.419249"/>
    </g>
   </g>
   <g id="line2d_26">
    <path clip-path="url(#p3cd6524938)" d="M 159.602507 98.10843 
L 159.602507 98.10843 
" style="fill:none;stroke:#727272;stroke-linecap:round;stroke-width:1.2;"/>
   </g>
   <g id="line2d_27">
    <path clip-path="url(#p3cd6524938)" d="M 159.602507 35.270599 
L 159.602507 16.419249 
" style="fill:none;stroke:#727272;stroke-linecap:round;stroke-width:1.2;"/>
   </g>
   <g id="line2d_28">
    <path clip-path="url(#p3cd6524938)" d="M 154.509803 98.10843 
L 164.69521 98.10843 
" style="fill:none;stroke:#727272;stroke-linecap:round;stroke-width:1.2;"/>
   </g>
   <g id="line2d_29">
    <path clip-path="url(#p3cd6524938)" d="M 154.509803 16.419249 
L 164.69521 16.419249 
" style="fill:none;stroke:#727272;stroke-linecap:round;stroke-width:1.2;"/>
   </g>
   <g id="line2d_30"/>
   <g id="line2d_31">
    <path clip-path="url(#p3cd6524938)" d="M 204.870981 98.10843 
L 204.870981 98.10843 
" style="fill:none;stroke:#727272;stroke-linecap:round;stroke-width:1.2;"/>
   </g>
   <g id="line2d_32">
    <path clip-path="url(#p3cd6524938)" d="M 204.870981 40.926003 
L 204.870981 16.419249 
" style="fill:none;stroke:#727272;stroke-linecap:round;stroke-width:1.2;"/>
   </g>
   <g id="line2d_33">
    <path clip-path="url(#p3cd6524938)" d="M 199.778278 98.10843 
L 209.963684 98.10843 
" style="fill:none;stroke:#727272;stroke-linecap:round;stroke-width:1.2;"/>
   </g>
   <g id="line2d_34">
    <path clip-path="url(#p3cd6524938)" d="M 199.778278 16.419249 
L 209.963684 16.419249 
" style="fill:none;stroke:#727272;stroke-linecap:round;stroke-width:1.2;"/>
   </g>
   <g id="line2d_35"/>
   <g id="line2d_36">
    <path clip-path="url(#p3cd6524938)" d="M 250.139455 77.686135 
L 250.139455 98.10843 
" style="fill:none;stroke:#727272;stroke-linecap:round;stroke-width:1.2;"/>
   </g>
   <g id="line2d_37">
    <path clip-path="url(#p3cd6524938)" d="M 250.139455 16.419249 
L 250.139455 16.419249 
" style="fill:none;stroke:#727272;stroke-linecap:round;stroke-width:1.2;"/>
   </g>
   <g id="line2d_38">
    <path clip-path="url(#p3cd6524938)" d="M 245.046752 98.10843 
L 255.232159 98.10843 
" style="fill:none;stroke:#727272;stroke-linecap:round;stroke-width:1.2;"/>
   </g>
   <g id="line2d_39">
    <path clip-path="url(#p3cd6524938)" d="M 245.046752 16.419249 
L 255.232159 16.419249 
" style="fill:none;stroke:#727272;stroke-linecap:round;stroke-width:1.2;"/>
   </g>
   <g id="line2d_40"/>
   <g id="line2d_41">
    <path clip-path="url(#p3cd6524938)" d="M 295.40793 57.26384 
L 295.40793 70.878703 
" style="fill:none;stroke:#727272;stroke-linecap:round;stroke-width:1.2;"/>
   </g>
   <g id="line2d_42">
    <path clip-path="url(#p3cd6524938)" d="M 295.40793 28.089132 
L 295.40793 16.419249 
" style="fill:none;stroke:#727272;stroke-linecap:round;stroke-width:1.2;"/>
   </g>
   <g id="line2d_43">
    <path clip-path="url(#p3cd6524938)" d="M 290.315227 70.878703 
L 300.500633 70.878703 
" style="fill:none;stroke:#727272;stroke-linecap:round;stroke-width:1.2;"/>
   </g>
   <g id="line2d_44">
    <path clip-path="url(#p3cd6524938)" d="M 290.315227 16.419249 
L 300.500633 16.419249 
" style="fill:none;stroke:#727272;stroke-linecap:round;stroke-width:1.2;"/>
   </g>
   <g id="line2d_45"/>
   <g id="line2d_46">
    <path clip-path="url(#p3cd6524938)" d="M 340.676404 38.698117 
L 340.676404 70.878703 
" style="fill:none;stroke:#727272;stroke-linecap:round;stroke-width:1.2;"/>
   </g>
   <g id="line2d_47">
    <path clip-path="url(#p3cd6524938)" d="M 340.676404 16.419249 
L 340.676404 16.419249 
" style="fill:none;stroke:#727272;stroke-linecap:round;stroke-width:1.2;"/>
   </g>
   <g id="line2d_48">
    <path clip-path="url(#p3cd6524938)" d="M 335.583701 70.878703 
L 345.769108 70.878703 
" style="fill:none;stroke:#727272;stroke-linecap:round;stroke-width:1.2;"/>
   </g>
   <g id="line2d_49">
    <path clip-path="url(#p3cd6524938)" d="M 335.583701 16.419249 
L 345.769108 16.419249 
" style="fill:none;stroke:#727272;stroke-linecap:round;stroke-width:1.2;"/>
   </g>
   <g id="line2d_50">
    <g clip-path="url(#p3cd6524938)">
     <use style="fill:#727272;" x="340.676404" xlink:href="#m9e8f777cf2" y="98.10843"/>
     <use style="fill:#727272;" x="340.676404" xlink:href="#m9e8f777cf2" y="98.10843"/>
     <use style="fill:#727272;" x="340.676404" xlink:href="#m9e8f777cf2" y="98.10843"/>
     <use style="fill:#727272;" x="340.676404" xlink:href="#m9e8f777cf2" y="98.10843"/>
     <use style="fill:#727272;" x="340.676404" xlink:href="#m9e8f777cf2" y="98.10843"/>
     <use style="fill:#727272;" x="340.676404" xlink:href="#m9e8f777cf2" y="98.10843"/>
     <use style="fill:#727272;" x="340.676404" xlink:href="#m9e8f777cf2" y="98.10843"/>
    </g>
   </g>
   <g id="line2d_51">
    <path clip-path="url(#p3cd6524938)" d="M 385.944879 36.841544 
L 385.944879 57.26384 
" style="fill:none;stroke:#727272;stroke-linecap:round;stroke-width:1.2;"/>
   </g>
   <g id="line2d_52">
    <path clip-path="url(#p3cd6524938)" d="M 385.944879 16.419249 
L 385.944879 16.419249 
" style="fill:none;stroke:#727272;stroke-linecap:round;stroke-width:1.2;"/>
   </g>
   <g id="line2d_53">
    <path clip-path="url(#p3cd6524938)" d="M 380.852176 57.26384 
L 391.037582 57.26384 
" style="fill:none;stroke:#727272;stroke-linecap:round;stroke-width:1.2;"/>
   </g>
   <g id="line2d_54">
    <path clip-path="url(#p3cd6524938)" d="M 380.852176 16.419249 
L 391.037582 16.419249 
" style="fill:none;stroke:#727272;stroke-linecap:round;stroke-width:1.2;"/>
   </g>
   <g id="line2d_55">
    <g clip-path="url(#p3cd6524938)">
     <use style="fill:#727272;" x="385.944879" xlink:href="#m9e8f777cf2" y="98.10843"/>
     <use style="fill:#727272;" x="385.944879" xlink:href="#m9e8f777cf2" y="98.10843"/>
     <use style="fill:#727272;" x="385.944879" xlink:href="#m9e8f777cf2" y="98.10843"/>
     <use style="fill:#727272;" x="385.944879" xlink:href="#m9e8f777cf2" y="98.10843"/>
     <use style="fill:#727272;" x="385.944879" xlink:href="#m9e8f777cf2" y="98.10843"/>
     <use style="fill:#727272;" x="385.944879" xlink:href="#m9e8f777cf2" y="98.10843"/>
    </g>
   </g>
   <g id="line2d_56">
    <path clip-path="url(#p3cd6524938)" d="M 58.880151 98.10843 
L 79.250964 98.10843 
" style="fill:none;stroke:#727272;stroke-linecap:round;stroke-width:1.2;"/>
   </g>
   <g id="line2d_57">
    <path clip-path="url(#p3cd6524938)" d="M 104.148625 98.10843 
L 124.519439 98.10843 
" style="fill:none;stroke:#727272;stroke-linecap:round;stroke-width:1.2;"/>
   </g>
   <g id="line2d_58">
    <path clip-path="url(#p3cd6524938)" d="M 149.4171 98.10843 
L 169.787913 98.10843 
" style="fill:none;stroke:#727272;stroke-linecap:round;stroke-width:1.2;"/>
   </g>
   <g id="line2d_59">
    <path clip-path="url(#p3cd6524938)" d="M 194.685574 60.405731 
L 215.056388 60.405731 
" style="fill:none;stroke:#727272;stroke-linecap:round;stroke-width:1.2;"/>
   </g>
   <g id="line2d_60">
    <path clip-path="url(#p3cd6524938)" d="M 239.954049 36.841544 
L 260.324862 36.841544 
" style="fill:none;stroke:#727272;stroke-linecap:round;stroke-width:1.2;"/>
   </g>
   <g id="line2d_61">
    <path clip-path="url(#p3cd6524938)" d="M 285.222523 38.698117 
L 305.593337 38.698117 
" style="fill:none;stroke:#727272;stroke-linecap:round;stroke-width:1.2;"/>
   </g>
   <g id="line2d_62">
    <path clip-path="url(#p3cd6524938)" d="M 330.490998 26.630397 
L 350.861811 26.630397 
" style="fill:none;stroke:#727272;stroke-linecap:round;stroke-width:1.2;"/>
   </g>
   <g id="line2d_63">
    <path clip-path="url(#p3cd6524938)" d="M 375.759472 16.419249 
L 396.130286 16.419249 
" style="fill:none;stroke:#727272;stroke-linecap:round;stroke-width:1.2;"/>
   </g>
   <g id="legend_1">
    <g id="patch_11">
     <path d="M 333.685869 93.10843 
L 401.579116 93.10843 
Q 403.579116 93.10843 403.579116 91.10843 
L 403.579116 78.171252 
Q 403.579116 76.171252 401.579116 76.171252 
L 333.685869 76.171252 
Q 331.685869 76.171252 331.685869 78.171252 
L 331.685869 91.10843 
Q 331.685869 93.10843 333.685869 93.10843 
z
" style="fill:#ffffff;opacity:0.8;stroke:#cccccc;stroke-linejoin:miter;stroke-width:0.3;"/>
    </g>
    <g id="line2d_64">
     <path d="M 335.685869 83.671252 
L 355.685869 83.671252 
" style="fill:none;stroke:#6074a2;stroke-dasharray:5.18,2.24;stroke-dashoffset:0;stroke-width:1.4;"/>
    </g>
    <g id="line2d_65"/>
    <g id="text_13">
     <!-- Baseline -->
     <defs>
      <path d="M 5.203125 68 
L 5.203125 65.40625 
C 12.09375 65.40625 13.203125 65.40625 13.203125 60.9375 
L 13.203125 7.0625 
C 13.203125 2.59375 12.09375 2.59375 5.203125 2.59375 
L 5.203125 0 
L 39.59375 0 
C 52.40625 0 60.703125 9.109375 60.703125 18.1875 
C 60.703125 27.203125 52.5 34.890625 41.796875 34.890625 
C 51.40625 36.8125 58.09375 43.296875 58.09375 51 
C 58.09375 59.40625 49.90625 68 37 68 
z
M 19.5 36 
L 19.5 61.515625 
C 19.5 64.921875 19.703125 65.40625 23.703125 65.40625 
L 36.5 65.40625 
C 46.40625 65.40625 50.796875 57.40625 50.796875 51.203125 
C 50.796875 43.609375 44.703125 36 33.90625 36 
z
M 23.703125 2.59375 
C 19.703125 2.59375 19.5 3.078125 19.5 6.453125 
L 19.5 34.40625 
L 38 34.40625 
C 48.296875 34.40625 53.296875 25.390625 53.296875 18.15625 
C 53.296875 10.921875 47.59375 2.59375 36.703125 2.59375 
z
" id="CMR17-66"/>
     </defs>
     <g style="fill:#262626;" transform="translate(363.685869 87.171252)scale(0.1 -0.1)">
      <use transform="scale(0.996264)" xlink:href="#CMR17-66"/>
      <use transform="translate(65.188754 0)scale(0.996264)" xlink:href="#CMR17-97"/>
      <use transform="translate(110.879232 0)scale(0.996264)" xlink:href="#CMR17-115"/>
      <use transform="translate(146.680569 0)scale(0.996264)" xlink:href="#CMR17-101"/>
      <use transform="translate(187.16623 0)scale(0.996264)" xlink:href="#CMR17-108"/>
      <use transform="translate(212.037288 0)scale(0.996264)" xlink:href="#CMR17-105"/>
      <use transform="translate(236.908347 0)scale(0.996264)" xlink:href="#CMR17-110"/>
      <use transform="translate(287.803716 0)scale(0.996264)" xlink:href="#CMR17-101"/>
     </g>
    </g>
   </g>
  </g>
 </g>
 <defs>
  <clipPath id="p3cd6524938">
   <rect height="81.689181" width="362.147796" x="46.43132" y="16.419249"/>
  </clipPath>
 </defs>
</svg>
