<?xml version="1.0" encoding="UTF-8" standalone="no"?>
<!DOCTYPE svg PUBLIC "-//W3C//DTD SVG 1.1//EN"
 "http://www.w3.org/Graphics/SVG/1.1/DTD/svg11.dtd">
<!-- Generated by graphviz version 2.38.0 (20140413.2041)
 -->
<!-- Title: Complete transition chain Pages: 1 -->
<svg width="311pt" height="305pt"
 viewBox="0.00 0.00 311.04 305.00" xmlns="http://www.w3.org/2000/svg" xmlns:xlink="http://www.w3.org/1999/xlink">
<g id="graph0" class="graph" transform="scale(1 1) rotate(0) translate(4 301)">
<title>Complete transition chain</title>
<polygon fill="white" stroke="none" points="-4,4 -4,-301 307.044,-301 307.044,4 -4,4"/>
<!-- 0 -->
<g id="node1" class="node"><title>0</title>
<ellipse fill="none" stroke="black" cx="51.4971" cy="-279" rx="32.4942" ry="18"/>
<text text-anchor="middle" x="51.4971" y="-275.3" font-family="Times,serif" font-size="14.00">laptop</text>
</g>
<!-- 1 -->
<g id="node2" class="node"><title>1</title>
<ellipse fill="none" stroke="black" cx="32.4971" cy="-192" rx="32.4942" ry="18"/>
<text text-anchor="middle" x="32.4971" y="-188.3" font-family="Times,serif" font-size="14.00">phone</text>
</g>
<!-- 0&#45;&gt;1 -->
<g id="edge1" class="edge"><title>0&#45;&gt;1</title>
<path fill="none" stroke="black" d="M38.362,-262.261C34.3886,-256.556 30.5394,-249.827 28.4971,-243 26.3257,-235.742 26.0921,-227.642 26.7301,-220.111"/>
<polygon fill="black" stroke="black" points="30.2269,-220.37 28.101,-209.991 23.2902,-219.43 30.2269,-220.37"/>
<text text-anchor="middle" x="40.9971" y="-231.8" font-family="Times,serif" font-size="14.00">0.50</text>
<polyline fill="none" stroke="black" points="53.4971,-228 28.4971,-228 27.3391,-238.131 "/>
</g>
<!-- 2 -->
<g id="node3" class="node"><title>2</title>
<ellipse fill="none" stroke="black" cx="272.497" cy="-105" rx="30.5947" ry="18"/>
<text text-anchor="middle" x="272.497" y="-101.3" font-family="Times,serif" font-size="14.00">tablet</text>
</g>
<!-- 0&#45;&gt;2 -->
<g id="edge2" class="edge"><title>0&#45;&gt;2</title>
<path fill="none" stroke="black" d="M78.6959,-269.02C122.522,-253.176 208.678,-216.131 256.497,-156 261.762,-149.379 265.313,-140.987 267.7,-132.978"/>
<polygon fill="black" stroke="black" points="271.114,-133.751 270.143,-123.201 264.323,-132.054 271.114,-133.751"/>
<text text-anchor="middle" x="251.997" y="-188.3" font-family="Times,serif" font-size="14.00">0.50</text>
<polyline fill="none" stroke="black" points="264.497,-184.5 239.497,-184.5 256.501,-155.995 "/>
</g>
<!-- 1&#45;&gt;0 -->
<g id="edge3" class="edge"><title>1&#45;&gt;0</title>
<path fill="none" stroke="black" d="M44.5026,-208.892C48.1315,-214.61 51.6434,-221.307 53.4971,-228 55.5146,-235.284 55.9299,-243.392 55.5989,-250.922"/>
<polygon fill="black" stroke="black" points="52.0988,-250.773 54.7233,-261.037 59.0727,-251.376 52.0988,-250.773"/>
<text text-anchor="middle" x="68.9971" y="-231.8" font-family="Times,serif" font-size="14.00">0.29</text>
<polyline fill="none" stroke="black" points="81.4971,-228 56.4971,-228 55.22,-237.191 "/>
</g>
<!-- 1&#45;&gt;2 -->
<g id="edge4" class="edge"><title>1&#45;&gt;2</title>
<path fill="none" stroke="black" d="M59.6312,-181.907C68.7318,-179.088 78.9848,-176.158 88.4971,-174 140.234,-162.265 157.631,-176.652 206.497,-156 215.379,-152.246 233.077,-138.696 247.912,-126.647"/>
<polygon fill="black" stroke="black" points="250.28,-129.232 255.785,-120.179 245.836,-123.823 250.28,-129.232"/>
<text text-anchor="middle" x="239.997" y="-144.8" font-family="Times,serif" font-size="14.00">0.14</text>
<polyline fill="none" stroke="black" points="252.497,-141 227.497,-141 232.435,-138.87 "/>
</g>
<!-- 3 -->
<g id="node4" class="node"><title>3</title>
<ellipse fill="none" stroke="black" cx="110.497" cy="-18" rx="31.6951" ry="18"/>
<text text-anchor="middle" x="110.497" y="-14.3" font-family="Times,serif" font-size="14.00">watch</text>
</g>
<!-- 1&#45;&gt;3 -->
<g id="edge5" class="edge"><title>1&#45;&gt;3</title>
<path fill="none" stroke="black" d="M26.2145,-174.184C19.2984,-152.779 10.8456,-115.198 24.4971,-87 35.5238,-64.224 58.2912,-46.765 77.6312,-35.243"/>
<polygon fill="black" stroke="black" points="79.526,-38.1923 86.5017,-30.218 76.0757,-32.1017 79.526,-38.1923"/>
<text text-anchor="middle" x="36.9971" y="-101.3" font-family="Times,serif" font-size="14.00">0.14</text>
<polyline fill="none" stroke="black" points="49.4971,-97.5 24.4971,-97.5 24.5052,-86.9833 "/>
</g>
<!-- 4 -->
<g id="node5" class="node"><title>4</title>
<ellipse fill="none" stroke="black" cx="110.497" cy="-105" rx="51.9908" ry="18"/>
<text text-anchor="middle" x="110.497" y="-101.3" font-family="Times,serif" font-size="14.00">workstation</text>
</g>
<!-- 1&#45;&gt;4 -->
<g id="edge6" class="edge"><title>1&#45;&gt;4</title>
<path fill="none" stroke="black" d="M46.8035,-175.41C58.4556,-162.712 75.1034,-144.57 88.4569,-130.018"/>
<polygon fill="black" stroke="black" points="91.3015,-132.095 95.4839,-122.361 86.1439,-127.362 91.3015,-132.095"/>
<text text-anchor="middle" x="88.9971" y="-144.8" font-family="Times,serif" font-size="14.00">0.43</text>
<polyline fill="none" stroke="black" points="101.497,-141 76.4971,-141 79.6447,-139.621 "/>
</g>
<!-- 2&#45;&gt;1 -->
<g id="edge7" class="edge"><title>2&#45;&gt;1</title>
<path fill="none" stroke="black" d="M247.295,-115.6C240.848,-118.034 233.922,-120.63 227.497,-123 205.338,-131.174 199.001,-131.233 177.497,-141 164.998,-146.677 163.168,-150.72 150.497,-156 124.011,-167.037 116.003,-165.832 88.4971,-174 82.6318,-175.742 76.4272,-177.605 70.3676,-179.435"/>
<polygon fill="black" stroke="black" points="68.9466,-176.209 60.3918,-182.459 70.9772,-182.908 68.9466,-176.209"/>
<text text-anchor="middle" x="189.997" y="-144.8" font-family="Times,serif" font-size="14.00">0.50</text>
<polyline fill="none" stroke="black" points="202.497,-141 177.497,-141 177.479,-141.008 "/>
</g>
<!-- 2&#45;&gt;3 -->
<g id="edge8" class="edge"><title>2&#45;&gt;3</title>
<path fill="none" stroke="black" d="M257.864,-89.1624C246.37,-78.2002 229.513,-63.577 212.497,-54 192.769,-42.8961 168.92,-34.473 149.245,-28.6756"/>
<polygon fill="black" stroke="black" points="149.956,-25.2394 139.381,-25.883 148.049,-31.9747 149.956,-25.2394"/>
<text text-anchor="middle" x="245.997" y="-57.8" font-family="Times,serif" font-size="14.00">0.50</text>
<polyline fill="none" stroke="black" points="258.497,-54 233.497,-54 237.978,-71.6456 "/>
</g>
<!-- 3&#45;&gt;1 -->
<g id="edge9" class="edge"><title>3&#45;&gt;1</title>
<path fill="none" stroke="black" d="M136.467,-28.781C147.839,-34.4127 160.224,-42.6619 167.497,-54 184.083,-79.8555 187.647,-96.8696 171.497,-123 165.508,-132.691 106.43,-159.394 67.2451,-176.31"/>
<polygon fill="black" stroke="black" points="65.5644,-173.223 57.756,-180.384 68.3257,-179.655 65.5644,-173.223"/>
<text text-anchor="middle" x="194.997" y="-101.3" font-family="Times,serif" font-size="14.00">0.83</text>
<polyline fill="none" stroke="black" points="207.497,-97.5 182.497,-97.5 180.843,-101.668 "/>
</g>
<!-- 3&#45;&gt;4 -->
<g id="edge10" class="edge"><title>3&#45;&gt;4</title>
<path fill="none" stroke="black" d="M125.743,-34.1982C133.514,-43.8282 140.553,-56.7385 136.497,-69 135.369,-72.4091 133.767,-75.7566 131.904,-78.9482"/>
<polygon fill="black" stroke="black" points="128.854,-77.2098 126.144,-87.4521 134.65,-81.1354 128.854,-77.2098"/>
<text text-anchor="middle" x="150.997" y="-57.8" font-family="Times,serif" font-size="14.00">0.17</text>
<polyline fill="none" stroke="black" points="163.497,-54 138.497,-54 137.682,-61.4808 "/>
</g>
<!-- 4&#45;&gt;3 -->
<g id="edge11" class="edge"><title>4&#45;&gt;3</title>
<path fill="none" stroke="black" d="M108.74,-86.929C108.232,-81.2336 107.747,-74.8494 107.497,-69 107.182,-61.6449 107.404,-53.6865 107.841,-46.3282"/>
<polygon fill="black" stroke="black" points="111.35,-46.3487 108.6,-36.1169 104.369,-45.8303 111.35,-46.3487"/>
<text text-anchor="middle" x="119.997" y="-57.8" font-family="Times,serif" font-size="14.00">1.00</text>
<polyline fill="none" stroke="black" points="132.497,-54 107.497,-54 107.35,-61.2501 "/>
</g>
</g>
</svg>
