<?xml version="1.0" encoding="utf-8" standalone="no"?>
<!DOCTYPE svg PUBLIC "-//W3C//DTD SVG 1.1//EN"
  "http://www.w3.org/Graphics/SVG/1.1/DTD/svg11.dtd">
<!-- Created with matplotlib (http://matplotlib.org/) -->
<svg height="144pt" version="1.1" viewBox="0 0 446 144" width="446pt" xmlns="http://www.w3.org/2000/svg" xmlns:xlink="http://www.w3.org/1999/xlink">
 <defs>
  <style type="text/css">
*{stroke-linecap:butt;stroke-linejoin:round;}
  </style>
 </defs>
 <g id="figure_1">
  <g id="patch_1">
   <path d="M 0 144 
L 446.4 144 
L 446.4 0 
L 0 0 
z
" style="fill:#ffffff;"/>
  </g>
  <g id="axes_1">
   <g id="patch_2">
    <path d="M 52.186764 120.564018 
L 436.032 120.564018 
L 436.032 13.18543 
L 52.186764 13.18543 
z
" style="fill:#ffffff;"/>
   </g>
   <g id="line2d_1">
    <path clip-path="url(#pfeea79ca17)" d="M 52.186764 22.94712 
L 436.032 22.94712 
" style="fill:none;stroke:#6074a2;stroke-dasharray:5.18,2.24;stroke-dashoffset:0;stroke-width:1.4;"/>
   </g>
   <g id="matplotlib.axis_1">
    <g id="xtick_1">
     <g id="line2d_2"/>
     <g id="text_1">
      <!-- 1. Cyclic -->
      <defs>
       <path d="M 31.796875 0 
L 31.796875 69.5 
L 27.5 69.5 
C 21.796875 63.171875 15.09375 57.75 7.796875 53.53125 
L 7.796875 50.3125 
C 14.40625 53.421875 20.5 57.4375 26 62.265625 
L 26 0 
z
" id="IwonaLight-Regular-49"/>
       <path d="M 12.796875 3.71875 
C 12.796875 5.71875 11.09375 7.4375 9.09375 7.4375 
C 7.09375 7.4375 5.40625 5.71875 5.40625 3.71875 
C 5.40625 1.703125 7.09375 0 9.09375 0 
C 11.09375 0 12.796875 1.703125 12.796875 3.71875 
z
" id="IwonaLight-Regular-46"/>
       <path d="M 58.796875 55.421875 
L 58.796875 59.453125 
C 53.5 66.6875 45 71 36 71 
C 16.296875 71 6 56.015625 6 35 
C 6 13.96875 16.296875 -1 36 -1 
C 43.5 -1 50.90625 1 57.40625 4.71875 
L 57.40625 8.140625 
C 50.90625 4.421875 43.5 2.40625 36 2.40625 
C 19.703125 2.40625 13.40625 16.6875 13.40625 35 
C 13.40625 53.3125 19.703125 67.59375 36 67.59375 
C 45.09375 67.59375 53.703125 63.0625 58.796875 55.421875 
z
" id="IwonaLight-Regular-67"/>
       <path d="M 42.09375 -5.953125 
L 42.09375 45 
L 36.296875 45 
L 36.296875 7.734375 
C 32.296875 4.625 27.59375 2.40625 22.5 2.40625 
C 17.296875 2.40625 13.296875 7.125 13.296875 12.546875 
L 13.296875 45 
L 7.5 45 
L 7.5 12.546875 
C 7.5 5.125 13.203125 -1 20.5 -1 
C 26.40625 -1 31.796875 1.703125 36.296875 5.421875 
L 36.296875 -5.984375 
C 36.296875 -13.28125 33 -20.578125 26.5 -20.578125 
C 21.5 -20.578125 16.59375 -19.6875 11.90625 -18.078125 
L 11.90625 -20.28125 
C 17.09375 -22.59375 22.703125 -24 28.5 -24 
C 36.90625 -24 42.09375 -15.171875 42.09375 -5.953125 
z
" id="IwonaLight-Regular-121"/>
       <path d="M 38.90625 37.328125 
L 38.90625 40.5625 
C 35.296875 44 30.5 46 25.5 46 
C 13.5 46 5.5 36.609375 5.5 22.484375 
C 5.5 8.375 13.5 -1 25.5 -1 
C 30.203125 -1 34.796875 0.796875 38.09375 4.21875 
L 38.09375 7.453125 
C 34.203125 3.515625 31.09375 2.203125 25.5 2.203125 
C 17.5 2.203125 12.09375 10.296875 12.09375 22.5 
C 12.09375 34.703125 17.5 42.78125 25.5 42.78125 
C 31.09375 42.78125 34.90625 41.171875 38.90625 37.328125 
z
" id="IwonaLight-Regular-99"/>
       <path d="M 26 2.90625 
L 26 5.21875 
C 23.90625 3.609375 21.40625 2.40625 18.703125 2.40625 
C 14.5 2.40625 13.796875 7.71875 13.796875 12.53125 
L 13.796875 70 
L 8 70 
L 8 12.53125 
C 8 5.90625 10.296875 -1 16.09375 -1 
C 19.796875 -1 23.09375 0.703125 26 2.90625 
z
" id="IwonaLight-Regular-108"/>
       <path d="M 25.5 2.90625 
L 25.5 5.234375 
C 23.40625 3.609375 20.90625 2.40625 18.203125 2.40625 
C 14 2.40625 13.296875 7.75 13.296875 12.578125 
L 13.296875 45.125 
L 7.5 45.125 
L 7.5 12.578125 
C 7.5 5.9375 9.796875 -1 15.59375 -1 
C 19.296875 -1 22.59375 0.703125 25.5 2.90625 
z
M 14.09375 60.71875 
C 14.09375 62.734375 12.40625 64.4375 10.40625 64.4375 
C 8.40625 64.4375 6.703125 62.734375 6.703125 60.71875 
C 6.703125 58.71875 8.40625 57 10.40625 57 
C 12.40625 57 14.09375 58.71875 14.09375 60.71875 
z
" id="IwonaLight-Regular-105"/>
      </defs>
      <g style="fill:#262626;" transform="translate(85.765432 131.798878)scale(0.08 -0.08)">
       <use transform="scale(0.996264)" xlink:href="#IwonaLight-Regular-49"/>
       <use transform="translate(50.21167 0)scale(0.996264)" xlink:href="#IwonaLight-Regular-46"/>
       <use transform="translate(112.577924 0)scale(0.996264)" xlink:href="#IwonaLight-Regular-67"/>
       <use transform="translate(172.353689 0)scale(0.996264)" xlink:href="#IwonaLight-Regular-121"/>
       <use transform="translate(222.266461 0)scale(0.996264)" xlink:href="#IwonaLight-Regular-99"/>
       <use transform="translate(263.511739 0)scale(0.996264)" xlink:href="#IwonaLight-Regular-108"/>
       <use transform="translate(291.407193 0)scale(0.996264)" xlink:href="#IwonaLight-Regular-105"/>
       <use transform="translate(318.804407 0)scale(0.996264)" xlink:href="#IwonaLight-Regular-99"/>
      </g>
     </g>
    </g>
    <g id="xtick_2">
     <g id="line2d_3"/>
     <g id="text_2">
      <!-- 2. Sparse -->
      <defs>
       <path d="M 45.59375 0 
L 45.59375 4.625 
L 10 4.625 
L 28.59375 25.546875 
C 36.09375 34.09375 44.796875 42.84375 44.796875 54.3125 
C 44.796875 63.96875 35.40625 70.421875 25.203125 70.421875 
C 18 70.421875 11.09375 67.8125 5.59375 63.171875 
L 5.59375 59.953125 
C 11.09375 64.5 18 67 25.203125 67 
C 32.59375 67 39 61.5625 39 54.328125 
C 39 44.15625 32.703125 35.515625 26 27.875 
L 4.796875 3.515625 
L 4.796875 0 
z
" id="IwonaLight-Regular-50"/>
       <path d="M 56.5 20.265625 
C 56.5 32.1875 44.40625 39.203125 32 41.90625 
C 22.90625 43.921875 12.59375 46.53125 12.59375 55.046875 
C 12.59375 63.671875 21.796875 68.578125 31.203125 68.578125 
C 39.203125 68.578125 47.09375 66.375 53.59375 61.765625 
L 53.59375 64.671875 
C 47 69.28125 39.203125 72 31.203125 72 
C 18.703125 72 6.796875 64.984375 6.796875 53.546875 
C 6.796875 42.515625 18.796875 37.203125 30.40625 34.703125 
C 40.296875 32.5 50.703125 28.1875 50.703125 18.75 
C 50.703125 9.03125 41.40625 2.421875 31.203125 2.421875 
C 22.296875 2.421875 13.59375 4.625 6 9.234375 
L 6 6.328125 
C 13.59375 1.71875 22.296875 -1 31.203125 -1 
C 44.5 -1 56.5 7.71875 56.5 20.265625 
z
" id="IwonaLight-Regular-83"/>
       <path d="M 44.5 22.484375 
C 44.5 35.8125 39.296875 46 27.296875 46 
C 22.203125 46 17.5 44 13.296875 41.171875 
L 13.296875 45.203125 
L 7.5 45.203125 
L 7.5 -23.5 
L 13.296875 -23.5 
L 13.296875 1.296875 
C 17.296875 -0.203125 21.5 -1 25.703125 -1 
C 38.296875 -1 44.5 8.890625 44.5 22.484375 
z
M 37.90625 22.5 
C 37.90625 12.5 34.203125 2.203125 25.59375 2.203125 
C 21.40625 2.203125 17.203125 3.015625 13.296875 4.53125 
L 13.296875 37.9375 
C 16.796875 40.765625 21 42.78125 25.59375 42.78125 
C 35.203125 42.78125 37.90625 33.609375 37.90625 22.5 
z
" id="IwonaLight-Regular-112"/>
       <path d="M 41.5 -0.203125 
L 41.5 27.84375 
C 41.5 37.234375 36 46 27.40625 46 
C 21.296875 46 15.40625 44.109375 10.09375 41.109375 
L 10.09375 38.828125 
C 14.90625 41.203125 20.09375 42.59375 25.5 42.59375 
C 32.09375 42.59375 35.703125 35.4375 35.703125 28.078125 
L 35.703125 26.6875 
C 31.703125 28.203125 27.5 29 23.296875 29 
C 12.5 29 4.5 24.109375 4.5 13.953125 
C 4.5 4.28125 11.59375 -1 21.703125 -1 
C 26.796875 -1 31.5 1.015625 35.703125 3.84375 
L 35.703125 -0.203125 
z
M 35.703125 23.4375 
L 35.703125 7.109375 
C 32.203125 4.25 28 2.203125 23.5 2.203125 
C 16 2.203125 11.09375 6.59375 11.09375 13.953125 
C 11.09375 20.6875 16.796875 25.78125 23.5 25.78125 
C 27.59375 25.78125 31.796875 24.96875 35.703125 23.4375 
z
" id="IwonaLight-Regular-97"/>
       <path d="M 31.796875 40.296875 
L 31.796875 44.921875 
C 30.59375 45.3125 29.40625 45.421875 28.203125 45.421875 
C 22.703125 45.421875 17.796875 42.40625 13.796875 38.46875 
L 13.796875 44.921875 
L 8 44.921875 
L 8 -0.5 
L 13.796875 -0.5 
L 13.796875 35.25 
C 17.09375 38.46875 21.203125 41 25.796875 41 
C 27.796875 41 29.796875 40.796875 31.796875 40.296875 
z
" id="IwonaLight-Regular-114"/>
       <path d="M 36.90625 12.3125 
C 36.90625 19.984375 28.796875 24.015625 20.796875 25.9375 
C 15.40625 27.25 9.703125 29.46875 9.703125 34.71875 
C 9.703125 39.65625 14.796875 42.78125 20.203125 42.78125 
C 25.296875 42.78125 30.296875 41.359375 34.59375 38.640625 
L 34.59375 41.875 
C 30.296875 44.59375 25.296875 46 20.203125 46 
C 11.796875 46 4.09375 40.953125 4.09375 33.078125 
C 4.09375 25.921875 12.09375 22.6875 19.59375 20.890625 
C 25.40625 19.46875 31.296875 16.4375 31.296875 10.796875 
C 31.296875 5.53125 25.90625 2.203125 20.203125 2.203125 
C 14.40625 2.203125 8.703125 3.609375 3.5 6.34375 
L 3.5 3.109375 
C 8.703125 0.40625 14.40625 -1 20.203125 -1 
C 28.90625 -1 36.90625 4.25 36.90625 12.3125 
z
" id="IwonaLight-Regular-115"/>
       <path d="M 42.5 21.78125 
L 42.5 22.578125 
C 42.5 36.65625 35.09375 46 24 46 
C 12.90625 46 5.5 36.609375 5.5 22.484375 
C 5.5 8.375 12.90625 -1 24 -1 
C 28.90625 -1 33.703125 0.796875 37.40625 4.03125 
L 37.40625 7.28125 
C 33.203125 3.734375 29.40625 2.40625 24 2.40625 
C 14.796875 2.40625 12.09375 11.125 12.09375 21.78125 
z
M 35.90625 25 
L 12.09375 25 
C 12.09375 33.953125 16.09375 42.78125 24 42.78125 
C 31.90625 42.78125 35.90625 33.953125 35.90625 25 
z
" id="IwonaLight-Regular-101"/>
      </defs>
      <g style="fill:#262626;" transform="translate(180.280162 131.798878)scale(0.08 -0.08)">
       <use transform="scale(0.996264)" xlink:href="#IwonaLight-Regular-50"/>
       <use transform="translate(50.21167 0)scale(0.996264)" xlink:href="#IwonaLight-Regular-46"/>
       <use transform="translate(112.577924 0)scale(0.996264)" xlink:href="#IwonaLight-Regular-83"/>
       <use transform="translate(174.844425 0)scale(0.996264)" xlink:href="#IwonaLight-Regular-112"/>
       <use transform="translate(224.657625 0)scale(0.996264)" xlink:href="#IwonaLight-Regular-97"/>
       <use transform="translate(273.972679 0)scale(0.996264)" xlink:href="#IwonaLight-Regular-114"/>
       <use transform="translate(307.646421 0)scale(0.996264)" xlink:href="#IwonaLight-Regular-115"/>
       <use transform="translate(348.891699 0)scale(0.996264)" xlink:href="#IwonaLight-Regular-101"/>
      </g>
     </g>
    </g>
    <g id="xtick_3">
     <g id="line2d_4"/>
     <g id="text_3">
      <!-- 3. Dense -->
      <defs>
       <path d="M 45.59375 19.046875 
C 45.59375 28.265625 39.296875 36.078125 30.703125 38.40625 
C 38.40625 40.484375 43.203125 46.140625 43.203125 53.765625 
C 43.203125 63.5625 35.5 70 24 70 
C 17.796875 70 11.796875 68.390625 6.40625 65.296875 
L 6.40625 62.140625 
C 11.796875 65.203125 17.796875 66.78125 24 66.78125 
C 32 66.78125 37.40625 61.53125 37.40625 53.75 
C 37.40625 41.671875 31.5 38.8125 18.40625 38.8125 
L 18.40625 36 
C 32.703125 36 39 32.65625 39 19.046875 
C 39 9.8125 32.796875 2.203125 25.203125 2.203125 
C 18.09375 2.203125 11.203125 3.828125 4.796875 6.96875 
L 4.796875 3.71875 
C 11.203125 0.59375 18.09375 -1 25.203125 -1 
C 36.40625 -1 45.59375 8.015625 45.59375 19.046875 
z
" id="IwonaLight-Regular-51"/>
       <path d="M 66.40625 34.703125 
C 66.40625 55.75 55.5 70.40625 35.40625 70.40625 
C 28.796875 70.40625 22.296875 70.40625 15.796875 69.8125 
L 10 69.8125 
L 10 -0.296875 
L 15.796875 -0.296875 
C 22.296875 -1 28.796875 -1 35.40625 -1 
C 55.5 -1 66.40625 13.65625 66.40625 34.703125 
z
M 59 34.71875 
C 59 18.265625 50.296875 2.421875 35.40625 2.421875 
C 28.90625 2.421875 22.40625 2.421875 16 3.125 
L 16 66.40625 
C 22.40625 67 28.90625 67 35.40625 67 
C 50.296875 67 59 51.15625 59 34.71875 
z
" id="IwonaLight-Regular-68"/>
       <path d="M 42.59375 0.5 
L 42.59375 32.875 
C 42.59375 40.296875 36.90625 46.40625 29.59375 46.40625 
C 23.703125 46.40625 18.296875 43.703125 13.796875 40 
L 13.796875 45.609375 
L 8 45.609375 
L 8 0.5 
L 13.796875 0.5 
L 13.796875 37.6875 
C 17.796875 40.78125 22.5 43 27.59375 43 
C 32.796875 43 36.796875 38.28125 36.796875 32.859375 
L 36.796875 0.5 
z
" id="IwonaLight-Regular-110"/>
      </defs>
      <g style="fill:#262626;" transform="translate(277.269606 131.798878)scale(0.08 -0.08)">
       <use transform="scale(0.996264)" xlink:href="#IwonaLight-Regular-51"/>
       <use transform="translate(50.21167 0)scale(0.996264)" xlink:href="#IwonaLight-Regular-46"/>
       <use transform="translate(112.577924 0)scale(0.996264)" xlink:href="#IwonaLight-Regular-68"/>
       <use transform="translate(184.707524 0)scale(0.996264)" xlink:href="#IwonaLight-Regular-101"/>
       <use transform="translate(232.030095 0)scale(0.996264)" xlink:href="#IwonaLight-Regular-110"/>
       <use transform="translate(281.942867 0)scale(0.996264)" xlink:href="#IwonaLight-Regular-115"/>
       <use transform="translate(323.188145 0)scale(0.996264)" xlink:href="#IwonaLight-Regular-101"/>
      </g>
     </g>
    </g>
    <g id="xtick_4">
     <g id="line2d_5"/>
     <g id="text_4">
      <!-- 4. Uniform -->
      <defs>
       <path d="M 45.59375 24 
L 45.59375 27.40625 
L 38.40625 27.40625 
L 38.40625 69 
L 32.59375 69 
L 4.796875 27.40625 
L 4.796875 24 
L 32.59375 24 
L 32.59375 -0.5 
L 38.40625 -0.5 
L 38.40625 24 
z
M 32.59375 27.40625 
L 8.59375 27.40625 
L 32.59375 63.203125 
z
" id="IwonaLight-Regular-52"/>
       <path d="M 59.40625 20.03125 
L 59.40625 70.5 
L 56 70.5 
L 56 21.4375 
C 56 10.625 46.59375 2.421875 35.5 2.421875 
C 24.40625 2.421875 15 10.625 15 21.4375 
L 15 70.5 
L 9 70.5 
L 9 20.03125 
C 9 7.609375 21 -1 34.203125 -1 
C 47.40625 -1 59.40625 7.609375 59.40625 20.03125 
z
" id="IwonaLight-Regular-85"/>
       <path d="M 28 64.890625 
L 28 67.09375 
C 24.90625 69.390625 21.40625 71 17.5 71 
C 11.703125 71 9 64.203125 9 57.5 
L 9 45.21875 
L 2 45.21875 
L 2 42 
L 9 42 
L 9 0 
L 14.796875 0 
L 14.796875 42 
L 21.796875 42 
L 21.796875 45.21875 
L 14.796875 45.21875 
L 14.796875 57.5 
C 14.796875 62.390625 15.90625 67.59375 20.09375 67.59375 
C 22.90625 67.59375 25.59375 66.484375 28 64.890625 
z
" id="IwonaLight-Regular-102"/>
       <path d="M 42.5 22.484375 
C 42.5 37.734375 36 46 24 46 
C 12 46 5.5 37.734375 5.5 22.484375 
C 5.5 7.265625 12 -1 24 -1 
C 36 -1 42.5 7.265625 42.5 22.484375 
z
M 35.90625 22.5 
C 35.90625 9.265625 31.703125 2.203125 24 2.203125 
C 16.296875 2.203125 12.09375 9.265625 12.09375 22.5 
C 12.09375 35.734375 16.296875 42.78125 24 42.78125 
C 31.703125 42.78125 35.90625 35.734375 35.90625 22.5 
z
" id="IwonaLight-Regular-111"/>
       <path d="M 61.40625 0.5 
L 61.40625 32.875 
C 61.40625 39.890625 57.203125 46.40625 50.59375 46.40625 
C 45 46.40625 39.703125 43.796875 36.296875 39.390625 
C 34.59375 43.5 31.203125 46.40625 26.796875 46.40625 
C 21.796875 46.40625 17.40625 43.5 13.796875 40 
L 13.796875 45.609375 
L 8 45.609375 
L 8 0.5 
L 13.796875 0.5 
L 13.796875 37.6875 
C 16.796875 40.578125 20.40625 43 24.59375 43 
C 29.203125 43 31.796875 37.984375 31.796875 32.859375 
L 31.796875 0.5 
L 37.59375 0.5 
L 37.59375 32.875 
C 37.59375 34.46875 37.40625 36.1875 36.90625 37.6875 
C 40 40.78125 44 43 48.40625 43 
C 53 43 55.59375 37.984375 55.59375 32.859375 
L 55.59375 0.5 
z
" id="IwonaLight-Regular-109"/>
      </defs>
      <g style="fill:#262626;" transform="translate(370.776131 131.798878)scale(0.08 -0.08)">
       <use transform="scale(0.996264)" xlink:href="#IwonaLight-Regular-52"/>
       <use transform="translate(50.21167 0)scale(0.996264)" xlink:href="#IwonaLight-Regular-46"/>
       <use transform="translate(112.577924 0)scale(0.996264)" xlink:href="#IwonaLight-Regular-85"/>
       <use transform="translate(180.722377 0)scale(0.996264)" xlink:href="#IwonaLight-Regular-110"/>
       <use transform="translate(230.635149 0)scale(0.996264)" xlink:href="#IwonaLight-Regular-105"/>
       <use transform="translate(258.032363 0)scale(0.996264)" xlink:href="#IwonaLight-Regular-102"/>
       <use transform="translate(281.743526 0)scale(0.996264)" xlink:href="#IwonaLight-Regular-111"/>
       <use transform="translate(329.564244 0)scale(0.996264)" xlink:href="#IwonaLight-Regular-114"/>
       <use transform="translate(363.237986 0)scale(0.996264)" xlink:href="#IwonaLight-Regular-109"/>
      </g>
     </g>
    </g>
   </g>
   <g id="matplotlib.axis_2">
    <g id="ytick_1">
     <g id="line2d_6">
      <path clip-path="url(#pfeea79ca17)" d="M 52.186764 120.564018 
L 436.032 120.564018 
" style="fill:none;stroke:#cccccc;stroke-linecap:round;stroke-width:0.8;"/>
     </g>
     <g id="line2d_7"/>
     <g id="text_5">
      <!-- 0 -->
      <defs>
       <path d="M 46.203125 34.484375 
C 46.203125 58.15625 39.203125 70 25.203125 70 
C 11.203125 70 4.203125 58.15625 4.203125 34.484375 
C 4.203125 10.828125 11.203125 -1 25.203125 -1 
C 39.203125 -1 46.203125 10.828125 46.203125 34.484375 
z
M 39.59375 34.484375 
C 39.59375 12.9375 34.796875 2.203125 25.203125 2.203125 
C 15.59375 2.203125 10.796875 12.9375 10.796875 34.484375 
C 10.796875 56.046875 15.59375 66.78125 25.203125 66.78125 
C 34.796875 66.78125 39.59375 56.046875 39.59375 34.484375 
z
" id="IwonaLight-Regular-48"/>
      </defs>
      <g style="fill:#262626;" transform="translate(42.56983 123.381448)scale(0.08 -0.08)">
       <use transform="scale(0.996264)" xlink:href="#IwonaLight-Regular-48"/>
      </g>
     </g>
    </g>
    <g id="ytick_2">
     <g id="line2d_8">
      <path clip-path="url(#pfeea79ca17)" d="M 52.186764 66.874724 
L 436.032 66.874724 
" style="fill:none;stroke:#cccccc;stroke-linecap:round;stroke-width:0.8;"/>
     </g>
     <g id="line2d_9"/>
     <g id="text_6">
      <!-- $w_{sess}/2$ -->
      <defs>
       <path d="M 74.40625 45 
L 71 45 
L 49.796875 6.40625 
L 45.59375 45 
L 41.59375 45 
L 20.40625 6.40625 
L 16.203125 45 
L 10.703125 45 
L 15.59375 0 
L 20.296875 0 
L 40.90625 37.703125 
L 45 0 
L 49.703125 0 
z
" id="IwonaLight-Italic-119"/>
       <path d="M 38.59375 12.3125 
C 40.203125 19.984375 32.90625 23.90625 25.40625 25.84375 
C 20.296875 27.140625 15 29.46875 16.09375 34.625 
C 17.09375 39.65625 22.90625 42.78125 28.40625 42.78125 
C 33.5 42.78125 38.203125 41.359375 41.90625 38.640625 
L 42.59375 41.875 
C 38.90625 44.59375 34.203125 46 29.09375 46 
C 20.796875 46 12 40.953125 10.296875 33.1875 
C 8.796875 25.921875 16.09375 22.796875 23.203125 20.984375 
C 28.796875 19.5625 34.09375 16.4375 32.90625 10.796875 
C 31.703125 5.53125 25.59375 2.203125 19.90625 2.203125 
C 14 2.203125 8.59375 3.609375 4 6.34375 
L 3.40625 3.109375 
C 7.90625 0.40625 13.40625 -1 19.203125 -1 
C 27.796875 -1 36.90625 4.25 38.59375 12.3125 
z
" id="IwonaLight-Italic-115"/>
       <path d="M 46.296875 21.78125 
L 46.40625 22.578125 
C 49.40625 36.65625 44 46 32.90625 46 
C 21.796875 46 12.40625 36.609375 9.40625 22.484375 
C 6.5 8.375 11.90625 -1 23 -1 
C 27.90625 -1 33 0.8125 37.40625 4.046875 
L 38.09375 7.28125 
C 33.203125 3.734375 29.09375 2.40625 23.703125 2.40625 
C 14.5 2.40625 13.59375 11.125 15.90625 21.78125 
z
M 40.296875 25 
L 16.5 25 
C 18.40625 33.953125 24.296875 42.78125 32.203125 42.78125 
C 40.09375 42.78125 42.203125 33.953125 40.296875 25 
z
" id="IwonaLight-Italic-101"/>
       <path d="M 29.703125 70 
L 25.796875 70 
L 8.09375 -12 
L 12 -12 
z
" id="IwonaLight-Italic-61"/>
      </defs>
      <g style="fill:#262626;" transform="translate(22.582785 69.692154)scale(0.08 -0.08)">
       <use transform="translate(0 14.943915)scale(0.996264)" xlink:href="#IwonaLight-Italic-119"/>
       <use transform="translate(69.340072 0)scale(0.697382)" xlink:href="#IwonaLight-Italic-115"/>
       <use transform="translate(101.280157 0)scale(0.697382)" xlink:href="#IwonaLight-Italic-101"/>
       <use transform="translate(137.892662 0)scale(0.697382)" xlink:href="#IwonaLight-Italic-115"/>
       <use transform="translate(169.832747 0)scale(0.697382)" xlink:href="#IwonaLight-Italic-115"/>
       <use transform="translate(202.270964 14.943915)scale(0.996264)" xlink:href="#IwonaLight-Italic-61"/>
       <use transform="translate(234.649514 14.943915)scale(0.996264)" xlink:href="#IwonaLight-Regular-50"/>
      </g>
     </g>
    </g>
    <g id="ytick_3">
     <g id="line2d_10">
      <path clip-path="url(#pfeea79ca17)" d="M 52.186764 13.18543 
L 436.032 13.18543 
" style="fill:none;stroke:#cccccc;stroke-linecap:round;stroke-width:0.8;"/>
     </g>
     <g id="line2d_11"/>
     <g id="text_7">
      <!-- $w_{sess}$ -->
      <g style="fill:#262626;" transform="translate(29.688128 16.00286)scale(0.08 -0.08)">
       <use transform="translate(0 14.943915)scale(0.996264)" xlink:href="#IwonaLight-Italic-119"/>
       <use transform="translate(69.340072 0)scale(0.697382)" xlink:href="#IwonaLight-Italic-115"/>
       <use transform="translate(101.280157 0)scale(0.697382)" xlink:href="#IwonaLight-Italic-101"/>
       <use transform="translate(137.892662 0)scale(0.697382)" xlink:href="#IwonaLight-Italic-115"/>
       <use transform="translate(169.832747 0)scale(0.697382)" xlink:href="#IwonaLight-Italic-115"/>
      </g>
     </g>
    </g>
    <g id="text_8">
     <!-- Reactive cost -->
     <defs>
      <path d="M 61.796875 0 
L 40 32.5 
C 51.40625 34.109375 59.40625 40.109375 59.40625 51.546875 
C 59.40625 65.09375 48 71 33.09375 71 
C 27 71 20.90625 71 14.796875 70.40625 
L 9 70.40625 
L 9 0 
L 15 0 
L 15 33.40625 
C 21 32.5 27 32 33.09375 32 
L 54.59375 0 
z
M 52 51.546875 
C 52 42.015625 43 35.40625 33.09375 35.40625 
C 27 35.40625 21 35.90625 15 36.8125 
L 15 66.984375 
C 21 67.59375 27 67.59375 33.09375 67.59375 
C 43 67.59375 52 60.96875 52 51.546875 
z
" id="IwonaLight-Regular-82"/>
      <path d="M 26.203125 2.90625 
L 26.203125 5.234375 
C 24.40625 3.609375 22.09375 2.40625 19.703125 2.40625 
C 15.59375 2.40625 15.40625 7.859375 15.40625 12.609375 
L 15.40625 42 
L 26.203125 42 
L 26.203125 45.21875 
L 15.40625 45.21875 
L 15.40625 60 
L 11.90625 60 
C 11.90625 52.609375 9.5 44.8125 3 44.8125 
L 3 42 
L 9.59375 42 
L 9.59375 12.609375 
C 9.59375 5.953125 11.40625 -1 17.09375 -1 
C 20.5 -1 23.59375 0.703125 26.203125 2.90625 
z
" id="IwonaLight-Regular-116"/>
      <path d="M 38 45 
L 34.59375 45 
L 20.296875 5.90625 
L 6.5 45 
L 1 45 
L 16.90625 0 
L 21.59375 0 
z
" id="IwonaLight-Regular-118"/>
     </defs>
     <g style="fill:#262626;" transform="translate(16.566344 90.44508)rotate(-90)scale(0.088 -0.088)">
      <use transform="scale(0.996264)" xlink:href="#IwonaLight-Regular-82"/>
      <use transform="translate(62.565398 0)scale(0.996264)" xlink:href="#IwonaLight-Regular-101"/>
      <use transform="translate(109.887969 0)scale(0.996264)" xlink:href="#IwonaLight-Regular-97"/>
      <use transform="translate(159.203022 0)scale(0.996264)" xlink:href="#IwonaLight-Regular-99"/>
      <use transform="translate(200.448301 0)scale(0.996264)" xlink:href="#IwonaLight-Regular-116"/>
      <use transform="translate(229.539191 0)scale(0.996264)" xlink:href="#IwonaLight-Regular-105"/>
      <use transform="translate(256.936406 0)scale(0.996264)" xlink:href="#IwonaLight-Regular-118"/>
      <use transform="translate(295.790642 0)scale(0.996264)" xlink:href="#IwonaLight-Regular-101"/>
      <use transform="translate(376.288822 0)scale(0.996264)" xlink:href="#IwonaLight-Regular-99"/>
      <use transform="translate(417.534101 0)scale(0.996264)" xlink:href="#IwonaLight-Regular-111"/>
      <use transform="translate(465.354819 0)scale(0.996264)" xlink:href="#IwonaLight-Regular-115"/>
      <use transform="translate(506.600097 0)scale(0.996264)" xlink:href="#IwonaLight-Regular-116"/>
     </g>
    </g>
   </g>
   <g id="patch_3">
    <path clip-path="url(#pfeea79ca17)" d="M 85.773222 120.564018 
L 114.561615 120.564018 
L 114.561615 120.564018 
L 85.773222 120.564018 
L 85.773222 120.564018 
z
" style="fill:#a4add9;fill-opacity:0.7;stroke:#727272;stroke-linejoin:miter;stroke-width:1.2;"/>
   </g>
   <g id="patch_4">
    <path clip-path="url(#pfeea79ca17)" d="M 181.734531 120.564018 
L 210.522924 120.564018 
L 210.522924 45.399006 
L 181.734531 45.399006 
L 181.734531 120.564018 
z
" style="fill:#a4add9;fill-opacity:0.7;stroke:#727272;stroke-linejoin:miter;stroke-width:1.2;"/>
   </g>
   <g id="patch_5">
    <path clip-path="url(#pfeea79ca17)" d="M 277.69584 66.874724 
L 306.484233 66.874724 
L 306.484233 28.525228 
L 277.69584 28.525228 
L 277.69584 66.874724 
z
" style="fill:#a4add9;fill-opacity:0.7;stroke:#727272;stroke-linejoin:miter;stroke-width:1.2;"/>
   </g>
   <g id="patch_6">
    <path clip-path="url(#pfeea79ca17)" d="M 373.657149 40.030077 
L 402.445542 40.030077 
L 402.445542 13.18543 
L 373.657149 13.18543 
L 373.657149 40.030077 
z
" style="fill:#a4add9;fill-opacity:0.7;stroke:#727272;stroke-linejoin:miter;stroke-width:1.2;"/>
   </g>
   <g id="line2d_12">
    <path clip-path="url(#pfeea79ca17)" d="M 100.167418 120.564018 
L 100.167418 120.564018 
" style="fill:none;stroke:#727272;stroke-linecap:round;stroke-width:1.2;"/>
   </g>
   <g id="line2d_13">
    <path clip-path="url(#pfeea79ca17)" d="M 100.167418 120.564018 
L 100.167418 120.564018 
" style="fill:none;stroke:#727272;stroke-linecap:round;stroke-width:1.2;"/>
   </g>
   <g id="line2d_14">
    <path clip-path="url(#pfeea79ca17)" d="M 92.97032 120.564018 
L 107.364517 120.564018 
" style="fill:none;stroke:#727272;stroke-linecap:round;stroke-width:1.2;"/>
   </g>
   <g id="line2d_15">
    <path clip-path="url(#pfeea79ca17)" d="M 92.97032 120.564018 
L 107.364517 120.564018 
" style="fill:none;stroke:#727272;stroke-linecap:round;stroke-width:1.2;"/>
   </g>
   <g id="line2d_16"/>
   <g id="line2d_17">
    <path clip-path="url(#pfeea79ca17)" d="M 196.128727 120.564018 
L 196.128727 120.564018 
" style="fill:none;stroke:#727272;stroke-linecap:round;stroke-width:1.2;"/>
   </g>
   <g id="line2d_18">
    <path clip-path="url(#pfeea79ca17)" d="M 196.128727 45.399006 
L 196.128727 13.18543 
" style="fill:none;stroke:#727272;stroke-linecap:round;stroke-width:1.2;"/>
   </g>
   <g id="line2d_19">
    <path clip-path="url(#pfeea79ca17)" d="M 188.931629 120.564018 
L 203.325826 120.564018 
" style="fill:none;stroke:#727272;stroke-linecap:round;stroke-width:1.2;"/>
   </g>
   <g id="line2d_20">
    <path clip-path="url(#pfeea79ca17)" d="M 188.931629 13.18543 
L 203.325826 13.18543 
" style="fill:none;stroke:#727272;stroke-linecap:round;stroke-width:1.2;"/>
   </g>
   <g id="line2d_21"/>
   <g id="line2d_22">
    <path clip-path="url(#pfeea79ca17)" d="M 292.090036 66.874724 
L 292.090036 84.771155 
" style="fill:none;stroke:#727272;stroke-linecap:round;stroke-width:1.2;"/>
   </g>
   <g id="line2d_23">
    <path clip-path="url(#pfeea79ca17)" d="M 292.090036 28.525228 
L 292.090036 13.18543 
" style="fill:none;stroke:#727272;stroke-linecap:round;stroke-width:1.2;"/>
   </g>
   <g id="line2d_24">
    <path clip-path="url(#pfeea79ca17)" d="M 284.892938 84.771155 
L 299.287135 84.771155 
" style="fill:none;stroke:#727272;stroke-linecap:round;stroke-width:1.2;"/>
   </g>
   <g id="line2d_25">
    <path clip-path="url(#pfeea79ca17)" d="M 284.892938 13.18543 
L 299.287135 13.18543 
" style="fill:none;stroke:#727272;stroke-linecap:round;stroke-width:1.2;"/>
   </g>
   <g id="line2d_26"/>
   <g id="line2d_27">
    <path clip-path="url(#pfeea79ca17)" d="M 388.051345 40.030077 
L 388.051345 66.874724 
" style="fill:none;stroke:#727272;stroke-linecap:round;stroke-width:1.2;"/>
   </g>
   <g id="line2d_28">
    <path clip-path="url(#pfeea79ca17)" d="M 388.051345 13.18543 
L 388.051345 13.18543 
" style="fill:none;stroke:#727272;stroke-linecap:round;stroke-width:1.2;"/>
   </g>
   <g id="line2d_29">
    <path clip-path="url(#pfeea79ca17)" d="M 380.854247 66.874724 
L 395.248444 66.874724 
" style="fill:none;stroke:#727272;stroke-linecap:round;stroke-width:1.2;"/>
   </g>
   <g id="line2d_30">
    <path clip-path="url(#pfeea79ca17)" d="M 380.854247 13.18543 
L 395.248444 13.18543 
" style="fill:none;stroke:#727272;stroke-linecap:round;stroke-width:1.2;"/>
   </g>
   <g id="line2d_31">
    <defs>
     <path d="M -0 2.828427 
L 1.697056 0 
L 0 -2.828427 
L -1.697056 -0 
z
" id="m3f6dd0b8fa"/>
    </defs>
    <g clip-path="url(#pfeea79ca17)">
     <use style="fill:#727272;" x="388.051345" xlink:href="#m3f6dd0b8fa" y="120.564018"/>
     <use style="fill:#727272;" x="388.051345" xlink:href="#m3f6dd0b8fa" y="120.564018"/>
     <use style="fill:#727272;" x="388.051345" xlink:href="#m3f6dd0b8fa" y="120.564018"/>
     <use style="fill:#727272;" x="388.051345" xlink:href="#m3f6dd0b8fa" y="120.564018"/>
     <use style="fill:#727272;" x="388.051345" xlink:href="#m3f6dd0b8fa" y="120.564018"/>
     <use style="fill:#727272;" x="388.051345" xlink:href="#m3f6dd0b8fa" y="120.564018"/>
    </g>
   </g>
   <g id="line2d_32">
    <path clip-path="url(#pfeea79ca17)" d="M 85.773222 120.564018 
L 114.561615 120.564018 
" style="fill:none;stroke:#727272;stroke-linecap:round;stroke-width:1.2;"/>
   </g>
   <g id="line2d_33">
    <path clip-path="url(#pfeea79ca17)" d="M 181.734531 71.00467 
L 210.522924 71.00467 
" style="fill:none;stroke:#727272;stroke-linecap:round;stroke-width:1.2;"/>
   </g>
   <g id="line2d_34">
    <path clip-path="url(#pfeea79ca17)" d="M 277.69584 42.470499 
L 306.484233 42.470499 
" style="fill:none;stroke:#727272;stroke-linecap:round;stroke-width:1.2;"/>
   </g>
   <g id="line2d_35">
    <path clip-path="url(#pfeea79ca17)" d="M 373.657149 13.18543 
L 402.445542 13.18543 
" style="fill:none;stroke:#727272;stroke-linecap:round;stroke-width:1.2;"/>
   </g>
   <g id="patch_7">
    <path d="M 52.186764 120.564018 
L 52.186764 13.18543 
" style="fill:none;stroke:#cccccc;stroke-linecap:square;stroke-linejoin:miter;"/>
   </g>
   <g id="patch_8">
    <path d="M 52.186764 120.564018 
L 436.032 120.564018 
" style="fill:none;stroke:#cccccc;stroke-linecap:square;stroke-linejoin:miter;"/>
   </g>
   <g id="legend_1">
    <g id="patch_9">
     <path d="M 57.786764 116.564018 
L 111.911784 116.564018 
Q 113.511784 116.564018 113.511784 114.964018 
L 113.511784 104.296036 
Q 113.511784 102.696036 111.911784 102.696036 
L 57.786764 102.696036 
Q 56.186764 102.696036 56.186764 104.296036 
L 56.186764 114.964018 
Q 56.186764 116.564018 57.786764 116.564018 
z
" style="fill:#ffffff;opacity:0.8;stroke:#cccccc;stroke-linejoin:miter;stroke-width:0.24;"/>
    </g>
    <g id="line2d_36">
     <path d="M 59.386764 108.730896 
L 75.386764 108.730896 
" style="fill:none;stroke:#6074a2;stroke-dasharray:5.18,2.24;stroke-dashoffset:0;stroke-width:1.4;"/>
    </g>
    <g id="line2d_37"/>
    <g id="text_9">
     <!-- Baseline -->
     <defs>
      <path d="M 60.40625 19.25 
C 60.40625 29.96875 53.203125 35.625 42.796875 37.703125 
C 51.09375 39.8125 56.703125 44.921875 56.703125 53.96875 
C 56.703125 66.28125 46.296875 71.40625 32.703125 71.40625 
C 27 71.40625 21.40625 71.40625 15.796875 70.8125 
L 10 70.8125 
L 10 0 
L 15.796875 0 
L 32.703125 0 
C 48.203125 0 60.40625 5.453125 60.40625 19.25 
z
M 50.703125 53.90625 
C 50.703125 42.4375 37.203125 38 24.203125 38 
L 16 38 
L 16 67.390625 
C 21.5 68 27.09375 68 32.703125 68 
C 42 68 50.703125 62.5625 50.703125 53.90625 
z
M 53 19.109375 
C 53 9.421875 43.203125 3.125 32.703125 3.125 
C 27.09375 3.125 21.5 3.125 16 3.828125 
L 16 35.484375 
L 28.40625 35.484375 
C 40.703125 35.484375 53 30.09375 53 19.109375 
z
" id="IwonaLight-Regular-66"/>
     </defs>
     <g style="fill:#262626;" transform="translate(81.786764 111.530896)scale(0.08 -0.08)">
      <use transform="scale(0.996264)" xlink:href="#IwonaLight-Regular-66"/>
      <use transform="translate(66.151879 0)scale(0.996264)" xlink:href="#IwonaLight-Regular-97"/>
      <use transform="translate(115.466932 0)scale(0.996264)" xlink:href="#IwonaLight-Regular-115"/>
      <use transform="translate(156.71221 0)scale(0.996264)" xlink:href="#IwonaLight-Regular-101"/>
      <use transform="translate(204.034781 0)scale(0.996264)" xlink:href="#IwonaLight-Regular-108"/>
      <use transform="translate(231.930234 0)scale(0.996264)" xlink:href="#IwonaLight-Regular-105"/>
      <use transform="translate(259.327449 0)scale(0.996264)" xlink:href="#IwonaLight-Regular-110"/>
      <use transform="translate(309.240221 0)scale(0.996264)" xlink:href="#IwonaLight-Regular-101"/>
     </g>
    </g>
   </g>
  </g>
 </g>
 <defs>
  <clipPath id="pfeea79ca17">
   <rect height="107.378588" width="383.845236" x="52.186764" y="13.18543"/>
  </clipPath>
 </defs>
</svg>
